%!PS-Adobe-3.0
%%Creator: (MATLAB, The Mathworks, Inc. Version 9.12.0.2170939 \(R2022a\) Update 6. Operating System: Windows 10)
%%Title: ./comp_8.fig
%%CreationDate: 2023-12-13T02:37:46
%%Pages: (atend)
%%BoundingBox:     0    74   596   769
%%LanguageLevel: 3
%%EndComments
%%BeginDefaults
%%EndDefaults
%%BeginProlog
%%EndProlog
%%BeginSetup
%%BeginResource: procset (Apache XML Graphics Std ProcSet) 1.2 0
%%Version: 1.2 0
%%Copyright: (Copyright 2001-2003,2010 The Apache Software Foundation. License terms: http://www.apache.org/licenses/LICENSE-2.0)
/bd{bind def}bind def
/ld{load def}bd
/GR/grestore ld
/GS/gsave ld
/RM/rmoveto ld
/C/curveto ld
/t/show ld
/L/lineto ld
/ML/setmiterlimit ld
/CT/concat ld
/f/fill ld
/N/newpath ld
/S/stroke ld
/CC/setcmykcolor ld
/A/ashow ld
/cp/closepath ld
/RC/setrgbcolor ld
/LJ/setlinejoin ld
/GC/setgray ld
/LW/setlinewidth ld
/M/moveto ld
/re {4 2 roll M
1 index 0 rlineto
0 exch rlineto
neg 0 rlineto
cp } bd
/_ctm matrix def
/_tm matrix def
/BT { _ctm currentmatrix pop matrix _tm copy pop 0 0 moveto } bd
/ET { _ctm setmatrix } bd
/iTm { _ctm setmatrix _tm concat } bd
/Tm { _tm astore pop iTm 0 0 moveto } bd
/ux 0.0 def
/uy 0.0 def
/F {
  /Tp exch def
  /Tf exch def
  Tf findfont Tp scalefont setfont
  /cf Tf def  /cs Tp def
} bd
/ULS {currentpoint /uy exch def /ux exch def} bd
/ULE {
  /Tcx currentpoint pop def
  gsave
  newpath
  cf findfont cs scalefont dup
  /FontMatrix get 0 get /Ts exch def /FontInfo get dup
  /UnderlinePosition get Ts mul /To exch def
  /UnderlineThickness get Ts mul /Tt exch def
  ux uy To add moveto  Tcx uy To add lineto
  Tt setlinewidth stroke
  grestore
} bd
/OLE {
  /Tcx currentpoint pop def
  gsave
  newpath
  cf findfont cs scalefont dup
  /FontMatrix get 0 get /Ts exch def /FontInfo get dup
  /UnderlinePosition get Ts mul /To exch def
  /UnderlineThickness get Ts mul /Tt exch def
  ux uy To add cs add moveto Tcx uy To add cs add lineto
  Tt setlinewidth stroke
  grestore
} bd
/SOE {
  /Tcx currentpoint pop def
  gsave
  newpath
  cf findfont cs scalefont dup
  /FontMatrix get 0 get /Ts exch def /FontInfo get dup
  /UnderlinePosition get Ts mul /To exch def
  /UnderlineThickness get Ts mul /Tt exch def
  ux uy To add cs 10 mul 26 idiv add moveto Tcx uy To add cs 10 mul 26 idiv add lineto
  Tt setlinewidth stroke
  grestore
} bd
/QT {
/Y22 exch store
/X22 exch store
/Y21 exch store
/X21 exch store
currentpoint
/Y21 load 2 mul add 3 div exch
/X21 load 2 mul add 3 div exch
/X21 load 2 mul /X22 load add 3 div
/Y21 load 2 mul /Y22 load add 3 div
/X22 load /Y22 load curveto
} bd
/SSPD {
dup length /d exch dict def
{
/v exch def
/k exch def
currentpagedevice k known {
/cpdv currentpagedevice k get def
v cpdv ne {
/upd false def
/nullv v type /nulltype eq def
/nullcpdv cpdv type /nulltype eq def
nullv nullcpdv or
{
/upd true def
} {
/sametype v type cpdv type eq def
sametype {
v type /arraytype eq {
/vlen v length def
/cpdvlen cpdv length def
vlen cpdvlen eq {
0 1 vlen 1 sub {
/i exch def
/obj v i get def
/cpdobj cpdv i get def
obj cpdobj ne {
/upd true def
exit
} if
} for
} {
/upd true def
} ifelse
} {
v type /dicttype eq {
v {
/dv exch def
/dk exch def
/cpddv cpdv dk get def
dv cpddv ne {
/upd true def
exit
} if
} forall
} {
/upd true def
} ifelse
} ifelse
} if
} ifelse
upd true eq {
d k v put
} if
} if
} if
} forall
d length 0 gt {
d setpagedevice
} if
} bd
/RE { % /NewFontName [NewEncodingArray] /FontName RE -
  findfont dup length dict begin
  {
    1 index /FID ne
    {def} {pop pop} ifelse
  } forall
  /Encoding exch def
  /FontName 1 index def
  currentdict definefont pop
  end
} bind def
%%EndResource
%%BeginResource: procset (Apache XML Graphics EPS ProcSet) 1.0 0
%%Version: 1.0 0
%%Copyright: (Copyright 2002-2003 The Apache Software Foundation. License terms: http://www.apache.org/licenses/LICENSE-2.0)
/BeginEPSF { %def
/b4_Inc_state save def         % Save state for cleanup
/dict_count countdictstack def % Count objects on dict stack
/op_count count 1 sub def      % Count objects on operand stack
userdict begin                 % Push userdict on dict stack
/showpage { } def              % Redefine showpage, { } = null proc
0 setgray 0 setlinecap         % Prepare graphics state
1 setlinewidth 0 setlinejoin
10 setmiterlimit [ ] 0 setdash newpath
/languagelevel where           % If level not equal to 1 then
{pop languagelevel             % set strokeadjust and
1 ne                           % overprint to their defaults.
{false setstrokeadjust false setoverprint
} if
} if
} bd
/EndEPSF { %def
count op_count sub {pop} repeat            % Clean up stacks
countdictstack dict_count sub {end} repeat
b4_Inc_state restore
} bd
%%EndResource
%%EndSetup
%%Page: 1 1
%%PageBoundingBox: 0 0 595 842
%%BeginPageSetup
<<
/PageSize [595 842]
/ImagingBBox null
>> setpagedevice
[1 0 0 -1 0 842] CT
%%EndPageSetup
GS
[0.5 0 0 0.5 -336.86221 75.05513] CT
N
0 0 M
2538 0 L
2538 1384 L
0 1384 L
0 0 L
cp
clip
1 GC
N
0 0 2538 1384 re
f
GR
GS
[0.47995 0 0 0.47989 -336.86221 102.8887] CT
[1 0 0 1 0 0] CT
N
0 -58 M
2644 -58 L
2644 1384 L
0 1384 L
0 -58 L
cp
clip
GS
0 0 translate
2538 1384 scale
%AXGBeginBitmap: java.awt.image.BufferedImage
{{
/RawData currentfile /ASCII85Decode filter def
/Data RawData /FlateDecode filter def
/DeviceGray setcolorspace
<<
  /ImageType 1
  /Decode [0 1]
  /DataSource Data
  /Height 1384
  /ImageMatrix [2538 0 0 1384 0 0]
  /Width 2538
  /BitsPerComponent 8
>> image
} stopped {handleerror} if
  RawData flushfile
} exec
Gb"0;!=]#/!5bE.WG`8*TE"rlzzzzzzzzzzzzzzzzzzzzzzzzzzzzzzzzzzzzzzzzzzzzzzzzzzzzzzz
zzzzzzzzzzzzzzzzzzzzzzzzzzzzzzzzzzzzzzzzzzzzzzzzzzzzzzzzzzzzzzzzzzzzzzzzzzzzzzzz
zzzzzzzzzzzzzzzzzzzzzzzzzzzzzzzzzzzzzzzzzzzzzzzzzzzzzzzzzzzzzzzzzzzzzzzzzzzzzzzz
zzzzzzzzzzzzzzzzzzzzzzzzzzzzzzzzzzzzzzzzzzzzzzzzzzzzzzzzzzzzzzzzzzzzzzzzzzzzzzzz
zzzzzzzzzzzzzzzzzzzzzzzzzzzzzzzzzzzzzzzzzzzzzzzzzzzzzzzzzzzzzzzzzzzzzzzzzzzzzzzz
zzzzzzzzzzzzzzzzzzzzzzzzzzzzzzzzzzzzzzzzzzzzzzzzzzzzzzzzzzzzzzzzzzzzzzzzzzzzzzzz
zzzzzzzzzzzzzzzzzzzzzzzzzzzzzzzzzzzzzzzzzzzzzzzzzzzzzzzzzzzzzzzzzzzzzzzzzzzzzzzz
zzzzzzzzzzzzzzzzzzzzzzzzzzzzzzzzzzzzzzzzzzzzzzzzzzzzzzzzzzzzzzzzzzzzzzzzzzzzzzzz
zzzzzzzzzzzzzzzzzzzzzzzzzzzzzzzzzzzzzzzzzzzzzzzzzzzzzzzzzzzzzzzzzzzzzzzzzzzzzzzz
zzzzzzzzzzzzzzzzzzzzzzzzzzzzzzzzzzzzzzzzzzzzzzzzzzzzzzzzzzzzzzzzzzzzzzzzzzzzzzzz
zzzzzzzzzzzzzzzzzzzzzzzzzzzzzzzzzzzzzzzzzzzzzzzzzzzzzzzzzzzzzzzzzzzzzzzzzzzi6MD*
I[B@~>

%AXGEndBitmap
GR
GR
GS
[0.47995 0 0 0.47989 881.26267 102.8887] CT
[1 0 0 1 0 0] CT
N
-2538 -58 M
106 -58 L
106 1384 L
-2538 1384 L
-2538 -58 L
cp
clip
GS
0 0 translate
106 1384 scale
%AXGBeginBitmap: java.awt.image.BufferedImage
{{
/RawData currentfile /ASCII85Decode filter def
/Data RawData /FlateDecode filter def
/DeviceGray setcolorspace
<<
  /ImageType 1
  /Decode [0 1]
  /DataSource Data
  /Height 1384
  /ImageMatrix [106 0 0 1384 0 0]
  /Width 106
  /BitsPerComponent 8
>> image
} stopped {handleerror} if
  RawData flushfile
} exec
Gb"0;0`_7S!5bE.WFlYNTE"rlzzzzzzzzzzzzzzzzzzzzzzzzzzzzzzzzzz!!!#5%A4g8<r~>

%AXGEndBitmap
GR
GR
GS
[0.47995 0 0 0.47989 -336.86221 75.05513] CT
[1 0 0 1 0 0] CT
N
0 0 M
2644 0 L
2644 1442 L
0 1442 L
0 0 L
cp
clip
GS
0 0 translate
2538 58 scale
%AXGBeginBitmap: java.awt.image.BufferedImage
{{
/RawData currentfile /ASCII85Decode filter def
/Data RawData /FlateDecode filter def
/DeviceGray setcolorspace
<<
  /ImageType 1
  /Decode [0 1]
  /DataSource Data
  /Height 58
  /ImageMatrix [2538 0 0 58 0 0]
  /Width 2538
  /BitsPerComponent 8
>> image
} stopped {handleerror} if
  RawData flushfile
} exec
Gb"0;0`_7S!5bE.WFlYNTE"rlzzzzzzzzzzzzzzzzzzzzzzzzzzzzzzzzzz!!!#Wb5c<Wk(*~>

%AXGEndBitmap
GR
GR
GS
[0.47995 0 0 0.47989 881.26267 75.05513] CT
[1 0 0 1 0 0] CT
N
-2538 0 M
106 0 L
106 1442 L
-2538 1442 L
-2538 0 L
cp
clip
GS
0 0 translate
106 58 scale
%AXGBeginBitmap: java.awt.image.BufferedImage
{{
/RawData currentfile /ASCII85Decode filter def
/Data RawData /FlateDecode filter def
/DeviceGray setcolorspace
<<
  /ImageType 1
  /Decode [0 1]
  /DataSource Data
  /Height 58
  /ImageMatrix [106 0 0 58 0 0]
  /Width 106
  /BitsPerComponent 8
>> image
} stopped {handleerror} if
  RawData flushfile
} exec
Gb"0;!=]#/!5bE.WG`:P'EA+5!!)M%N*bmP~>

%AXGEndBitmap
GR
GR
GS
[0.5 0 0 0.5 -336.86221 75.05513] CT
N
0 0 M
0 1384 L
2538 1384 L
2538 0 L
cp
clip
1 GC
N
0 0 2538 1384 re
f
GR
GS
[0.5 0 0 0.5 -338.36221 73.55513] CT
N
3 3 M
3 1384 L
2536 1384 L
2536 3 L
cp
clip
1 GC
N
0 0 2536 1384 re
f
GR
GS
[0.5 0 0 0.5 -338.36221 73.55513] CT
N
3 3 M
3 1384 L
2536 1384 L
2536 3 L
cp
clip
0.941 GC
N
0 0 2537 1384 re
f
GR
GS
[0.5 0 0 0.5 -338.36221 73.55513] CT
N
3 3 M
3 1384 L
2536 1384 L
2536 3 L
cp
clip
1 GC
N
0 0 2537 1384 re
f
GR
GS
[0.5 0 0 0.5 -338.36221 73.55513] CT
N
3 3 M
3 1384 L
2536 1384 L
2536 3 L
cp
clip
1 GC
N
0 0 2537 1384 re
f
GR
GS
[0.47995 0 0 0.47989 -336.92235 101.3887] CT
[1 0 0 1 0 0] CT
N
0.125 -54.874 M
0.125 1384 L
2638.916 1384 L
2638.916 -54.874 L
cp
clip
GS
0 0 translate
2537 1384 scale
%AXGBeginBitmap: java.awt.image.BufferedImage
{{
/RawData currentfile /ASCII85Decode filter def
/Data RawData /FlateDecode filter def
/DeviceGray setcolorspace
<<
  /ImageType 1
  /Decode [0 1]
  /DataSource Data
  /Height 1384
  /ImageMatrix [2537 0 0 1384 0 0]
  /Width 2537
  /BitsPerComponent 8
>> image
} stopped {handleerror} if
  RawData flushfile
} exec
Gb"-V6"mW\S`fg#?p\O#BR6%u%te!:Kji(H$k1m=H4L*$Uqq_p/56E=+nT=UbE?'cXG/(sdL;f[4r=\8
9e^Vr6SO-qYb5-f+U"*BBUZ.6$=OEs0o!Y(iPh0f<CnZ3YFa?pm?HM3T79$hLu(Xu;X%8TV^24?Eo)#P
r@HWLVJ?^d)g-]o":,P]5_&icW<.f\>p'XY!X&c?+@'>7J>$$\a?tIX!<NB0&==qTkg]k-&0O5g!!*-(
V@"/dFb)XX#S8+DJ,k/"!et#e+:eJS":,P]5[^UBTiW&O6\#.;!X&c?QmuM-eHPLT+@(GW!<ND$$5e)3
JNO&@&0O5g!.h*NL0e..%fl_7#S8+D@&eaN<u8qFJ,fTO":,R+.U_Jj"nE3I5_&h8!X,A-(j^=U49Pp$
+@(GWJZ/^*?<nZa!<NB0&0O5GWdpdE(W\so!!*-(#S<@Q@-H,Endlp/J,fTO"JuMCH?Fd$":,P]5_&ic
W<.f\>p'XY!X&c?+@'>7J>$$\a?tIX!<NB0&==qTkg]k-&0O5g!!*-(V@"/dFb)XX#S8+DJ,k/"!et#e
+:eJS":,P]5[^UBTiW&O6\#.;!X&c?QmuM-eHPLT+@(GW!<ND$$5e)3JNO&@&0O5g!.h*NL0e..%fl_7
#S8+D@&eaN<u8qFJ,fTO":,R+.U_Jj"nE3I5_&h8!X,A-(j^=U49Pp$+@(GWJZ/^*?<nZa!<NB0&0O5G
WdpdE(W\so!!*-(#S<@Q@-H,Endlp/J,fTO"JuMCH?Fd$":,P]5_&icW<.f\>p'XY!X&c?+@'>7J>$$\
a?tIX!<NB0&==qTkg]k-&0O5g!!*-(V@"/dFb)XX#S8+DJ,k/"!et#e+:eJS":,P]5[^UBTiW&O6\#.;
!X&c?QmuM-eHPLT+@(GW!<ND$$5e)3JNO&@&0O5g!.h*NL0e..%fl_7#S8+D@&eaN<u8qFJ,fTO":,R+
.U_Jj"nE3I5_&h8!X,A-(j^=U49Pp$+@(GWJZ/^*?<nZa!<NB0&0O5GWdpdE(W\so!!*-(#S<@Q@-H,E
ndlp/J,fTO"JuMCH?Fd$":,P]5_&icW<.f\>p'XY!X&c?+@'>7J>$$\a?tIX!<NB0&==qTkg]k-&0O5g
!!*-(V@"/dFb)XX#S8+DJ,k/"!et#e+:eJS":,P]5[^UBTiW&O6\#.;!X&c?QmuM-eHPLT+@(GW!<ND$
$5e)3JNO&@&0O5g!.h*NL0e..%fl_7#S8+D@&eaN<u8qFJ,fTO":,R+.U_Jj"nE3I5_&h8!X,A-(j^=U
49Pp$+@(GWJZ/^*?<nZa!<NB0&0O5GWdpdE(W\so!!*-(#S<@Q@-H,Endlp/J,fTO"JuMCH?Fd$":,P]
5_&icW<.f\>p'XY!X&c?+@'=_!`.\OLT?&ghL0>>eC!YPL0e..%fl_7#S8+D?u5reId\eVbs-RLo'!KJ
2OeW5Ye>C*H]b#2[M+#c&0O5g!!*-(egBm!?iQ0/s5m\e_6:=dD;P3cQ`kf2ntO%Lm6ucdl;$^96\#.;
!X&c?=IHsgYIo&So"E:TD85V3bCcF)I^QjP]"Q23>MG#5!^_D;!<NB0&6P@9#QNaAQS1SWr5ES5]B2mI
YAXqA[hilj]sXE`0-CB'&0O5g!.e,Wr:T2jhq@pTGP&9bC_'%F(MsVpFe76\L&_5U":,P]YXX3Dr:5'@
Df=Lc*PVIMgS<M]0!fh8hY@&jpZ_g*#S8+DJ,fTOlOc,C]YFFAT7$Fu6gk0gcS&k\\DWDe!X&c?+@(Im
q?6f[X5Enq]7'GCHeQBb]7+mL-gNk!`sr+O":,P]5[\^9J%>CHh&fEN5M<f!j7_^1U91,u^(Ykc&0O5g
!!*-(egBn_k-_7BDn`frrju,>8%09PHE0-4`t&1P":,P]5[\.)^\R.Zs-m<nDYr#I`uk?@Q//f/*8Oq3
kcO6jIK:TWJ,fTO":2)&i$[.Vf@_6^[m,1QZha=oh`En>h-OXUXmEuT!?j^Y!!*-(#YYseo]cL'#S8+D
J,fTO;[!TC\j.;<":,P]5_-XL!CO%COG<f:!X&c?+>?g2d&RQ8+[CPX!<NB09GK8Rl2l5:&0O5g!!*."
"Ur)U5TTt0#S8+DJA>+b6a&,(LB%>V":,P]0NGp8Wsdu35_&h8!X&d&'eo:F!dP%_+@(GW!<Q1'%)'5;
*WcHM&0O5g^f1>%Y:bol!!*-(#S8+4<PZt^$fiHrJ,fTO":.[90_FW3GmFs(5_&h8!`K72]t-HM!X&c?
+@(Im;uo@i/s(hg!<NB0&0NZ,^sK+ij<6d=!!*-(#YYseo]cL'#S8+DJ,fTO;[!TC\j.;<":,P]5_-XL
!CO%COG<f:!X&c?+>?g2d&RQ8+[CPX!<NB09GK8Rl2l5:&0O5g!!*.""Ur)U5TTt0#S8+DJA>+b6a&,(
LB%>V":,P]0NGp8Wsdu35_&h8!X&d&'eo:F!dP%_+@(GW!<Q1'%)'5;*WcHM&0O5g^f1>%Y:bol!!*-(
#S8+4<PZt^$fiHrJ,fTO":.[90_FW3GmFs(5_&h8!`K72]t-HM!X&c?+@(Im;uo@i/s(hg!<NB0&0NZ,
^sK+ij<6d=!!*-(#YYseo]cL'#S8+DJ,fTO;[!TC\j.;<":,P]5_-XL!CO%COG<f:!X&c?+>?g2d&RQ8
+[CPX!<NB09GK8Rl2l5:&0O5g!!*.""Ur)U5TTt0#S8+DJA>+b6a&,(LB%>V":,P]0NGp8Wsdu35_&h8
!X&d&'eo:F!dP%_+@(GW!<Q1'%)'5;*WcHM&0O5g^f1>%Y:bol!!*-(#S8+4<PZt^$fiHrJ,fTO":.[9
0_FW3GmFs(5_&h8!`K72]t-HM!X&c?+@(Im;uo@i/s(hg!<NB0&0NZ,^sK+ij<6d=!!*-(#YYseo]cL'
#S8+DJ,fTO;[!TC\j.;<":,P]5_-XL!CO%COG<f:!X&c?+>?g2d&RQ8+[CPX!<NB09GK8Rl2l5:&0O5g
!!*.""Ur)U5TTt0#S8+DJA>+b6a&,(LB%>V":,P]0NGp8Wsdu35_&h8!X&d&'eo:F!dP%_+@(GW!<Q1'
%)'5;*WcHM&0O5g^f1>%Y:bol!!*-(#S8+4<PZt^$fiHrJ,fTO":.[90_FW3GmFs(5_&h8!`K72]t-HM
!X&c?+@(Im;uo@i/s(hg!<NB0&0NZ,^sK+ij<6d=!!*-(#YYseo]cL'#S8+DJ,fTO;[!TC\j.;<":,P]
5_-XL!CO%COG<f:!X&c?+>?g2d&RQ8+[CPX!<NB09GK8Rl2l5:&0O5g!!*.""Ur)U5TTt0#S8+DJA>+b
6a&,(LB%>V":,P]0NGp8Wsdu35_&h8!X&d&'eo:F!dP%_+@(GW!<Q1'%)'5;*WcHM&0O5g^f1>%Y:bol
!!*-(#S8+4<PZt^$fiHrJ,fTO":.[90_FW3GmFs(5_&h8!`K72]t-HM!X&c?+@(Im;uo@i/s(hg!<NB0
&0NZ,^sK+ij<6d=!!*-(#YYseo]cL'#S8+DJ,fTO;[!TC\j.;<":,P]5_-XL!CO%COG<f:!X&c?+>?g2
d&RQ8+[CPX!<NB09GK8Rl2l5:&0O5g!!*.""Ur)U5TTt0#S8+DJA>+b6a&,(LB%>V":,P]0NGp8Wsdu3
5_&h8!X&d&'eo:F!dP%_+@(GW!<Q1'%)'5;*WcHM&0O5g^f1>%Y:bol!!*-(#S8+4<PZt^$fiHrJ,fTO
":.[90_FW3GmFs(5_&h8!`K72]t-HM!X&c?+@(Im;uo@i/s(hg!<NB0&0NZ,^sK+ij<6d=!!*-(#YYse
o]cL'#S8+DJ,fTO;[!TC\j.;<":,P]5_-XL!CO%COG<f:!X&c?+>?g2d&RQ8+[CPX!<NB09GK8Rl2l5:
&0O5g!!*.""Ur)U5TTt0#S8+DJA>+b6a&,(LB%>V":,P]0NGp8Wsdu35_&h8!X&d&'eo:F!dP%_+@(GW
!<Q1'%)'5;*WcHM&0O5g^f1>%Y:bol!!*-(#S8+4<PZt^$fiHrJ,fTO":.[90_FW3GmFs(5_&h8!`K72
]t-HM!X&c?+@(Im;uo@i/s(hg!<NB0&0NZ,^sK+ij<6d=!!*-(#YYseo]cL'#S8+DJ,fTO;[!TC\j.;<
":,P]5_-XL!CO%COG<f:!X&c?+>?g2d&RQ8+[CPX!<NB09GK8Rl2l5:&0O5g!!*.""Ur)U5TTt0#S8+D
JA>+b6a&,(LB%>V":,P]0NGp8Wsdu35_&h8!X&d&'eo:F!dP%_+@(GW!<Q1'%)'5;*WcHM&0O5g^f1>%
Y:bol!!*-(#S8+4<PZt^$fiHrJ,fTO":.[90_FW3GmFs(5_&h8!`K72]t-HM!X&c?+@(Im;uo@i/s(hg
!<NB0&0NZ,^sK+ij<6d=!!*-(#YYseo]cL'#S8+DJ,fTO;[!TC\j.;<":,P]5_-XL!CO%COG<f:!X&c?
+>?g2d&RQ8+[CPX!<NB09GK8Rl2l5:&0O5g!!*.""Ur)U5TTt0#S8+DJA>+b6a&,(LB%>V":,P]0NGp8
Wsdu35_&h8!X&d&'eo:F!dP%_+@(GW!<Q1'%)'5;*WcHM&0O5g^f1>%Y:bol!!*-(#S8+4<PZt^$fiHr
J,fTO":.[90_FW3GmFs(5_&h8!`K72]t-HM!X&c?+@(Im;uo@i/s(hg!<NB0&0NZ,^sK+ij<6d=!!*-(
#YYseo]cL'#S8+DJ,fTO;[!TC\j.;<":,P]5_-XL!CO%COG<f:!X&c?+>?g2d&RQ8+[CPX!<NB09GK8R
l2l5:&0O5g!!*.""Ur)U5TTt0#S8+DJA>+b6a&,(LB%>V":,P]0NGp8Wsdu35_&h8!X&d&'eo:F!dP%_
+@(GW!<Q1'%)'5;*WcHM&0O5g^f1>%Y:bol!!*-(#S8+4<PZt^$fiHrJ,fTO":.[90_FW3GmFs(5_&h8
!`K72]t-HM!X&c?+@(Im;uo@i/s(hg!<NB0&0NZ,^sK+ij<6d=!!*-(#YYseo]cL'#S8+DJ,fTO;[!TC
\j.;<":,P]5_-XL!CO%COG<f:!X&c?+>?g2d&RQ8+[CPX!<NB09GK8Rl2l5:&0O5g!!*.""Ur)U5TTt0
#S8+DJA>+b6a&,(LB%>V":,P]0NGp8Wsdu35_&h8!X&d&'eo:F!dP%_+@(GW!<Q1'%)'5;*WcHM&0O5g
^f1>%Y:bol!!*-(#S8+4<PZt^$fiHrJ,fTO":.[90_FW3GmFs(5_&h8!`K72]t-HM!X&c?+@(Im;uo@i
/s(hg!<NB0&0NZ,^sK+ij<6d=!!*-(#YYseo]cL'#S8+DJ,fTO;[!TC\j.;<":,P]5_-XL!CO%COG<f:
!X&c?+>?g2d&RQ8+[CPX!<NB0XARoj]XRq$UNbV-^>NsPH]b"'(W\so!!*-(#S:+3^otNPZeZ_,]sQI?
l[sOS[hfp..m1(,%KQV6#S8+D@!r*+s2nq4o\S<7q=-+Fq<m(6gPZKR'qX&fLB%>V":,P]YVq%[s6crf
E^031nX[i>5Mc8&cI)#JL>M2jm.!Gn!!*-(#S:+-_#&WVn)*"3^#*^Nc(AfY^HK0ABPZh6m_g/2":,P]
5_&ic[0\tka6e?>]sIP1ma\N>i:cC.U<@AER5]RZo"DV"*WcHM&0O5g^j6+n>AlauhVPoO4+@#&[n!nD
D*=Z'\cmT]&0O5g!!*-(<[_A>4\o+'@ZMK1":,P]5_-WW"nk=Ph8A\q%nH*FqpfQ8n&ph.T%G9C!!*-(
#S8,_6@o*^Ha<IhG5(QegS<M][YEWW:[F32J,fTO":,Q@Ttl-@D85o3pA45U3?6j]AE^/c`#^oA#S8+D
J,k-8$G:le(FK1Wj'TIilJ85iM[[9VT%G9C!!*-(#S8,_6@l22\,F]IS'AE,\9E%AOeK8$'78dO+@(GW
!<ND$$5e)3JNO&@&0O5g!.h*NL0e..%fl_7#S8+D@&eaN<u8qFJ,fTO":,R+.U_Jj"nE3I5_&h8!X,A-
(j^=U49Pp$+@(GWJZ/^*?<nZa!<NB0&0O5GWdpdE(W\so!!*-(#S<@Q@-H,Endlp/J,fTO"JuMCH?Fd$
":,P]5_&icW<.f\>p'XY!X&c?+@'>7J>$$\a?tIX!<NB0&==qTkg]k-&0O5g!!*-(V@"/dFb)XX#S8+D
J,k/"!et#e+:eJS":,P]5[^UBTiW&O6\#.;!X&c?QmuM-eHPLT+@(GW!<ND$$5e)3JNO&@&0O5g!.h*N
L0e..%fl_7#S8+D@&eaN<u8qFJ,fTO":,R+.U_Jj"nE3I5_&h8!X,A-(j^=U49Pp$+@(GWJZ/^*?<nZa
!<NB0&0O5GWdpdE(W\so!!*-(#S<@Q@-H,Endlp/J,fTO"JuMCH?Fd$":,P]5_&icW<.f\>p'XY!X&c?
+@'>7J>$$\a?tIX!<NB0&==qTkg]k-&0O5g!!*-(V@"/dFb)XX#S8+DJ,k/"!et#e+:eJS":,P]5[^UB
TiW&O6\#.;!X&c?QmuM-eHPLT+@(GW!<ND$$5e)3JNO&@&0O5g!.h*NL0e..%fl_7#S8+D@&eaN<u8qF
J,fTO":,R+.U_Jj"nE3I5_&h8!X,A-(j^=U49Pp$+@(GWJZ/^*?<nZa!<NB0&0O5GWdpdE(W\so!!*-(
#S<@Q@-H,Endlp/J,fTO"JuMCH?Fd$":,P]5_&icW<.f\>p'XY!X&c?+@'>7J>$$\a?tIX!<NB0&==qT
kg]k-&0O5g!!*-(V@"/dFb)XX#S8+DJ,k/"!et#e+:eJS":,P]5[^UBTiW&O6\#.;!X&c?QmuM-eHPLT
+@(GW!<ND$$5e)3JNO&@&0O5g!.h*NL0e..%fl_7#S8+D@&eaN<u8qFJ,fTO":,R+.U_Jj"nE3I5_&h8
!X,A-(j^=U49Pp$+@(GWJZ/^*?<nZa!<NB0&0O5GWdpdE(W\so!!*-(#S<@Q@-H,Endlp/J,fTO"JuMC
H?Fd$":,P]5_&icW<.f\>p'XY!X&c?+@'>7J>$$\a?tIX!<NB0&==qTkg]k-&0O5g!!*-(V@"/dFb)XX
#S8+DJ,k/"!et#e+:eJS":,P]5[^UBTiW&O6\#.;!X&c?QmuM-eHPLT+@(GW!<ND$$5e)3JNO&@&0O5g
!.h*NL0e..%fl_7#S8+D@&eaN<u8qFJ,fTO":,R+.U_Jj"nE3I5_&h8!X,A-(j^=U49Pp$+@(GWJZ/^*
?<nZa!<NB0&0O5GWdpdE(W\so!!*-(#S<@Q@-H,Endlp/J,fTO"JuMCH?Fd$":,P]5_&icW<.f\>p'XY
!X&c?+@'>7J>$$\a?tIX!<NB0&==qTkg]k-&0O5g!!*-(V@"/dFb)XX#S8+DJ,k/"!et#e+:eJS":,P]
5[^UBTiW&O6\#.;!X&c?QmuM-eHPLT+@(GW!<ND$$5e)3JNO&@&0O5g!.h*NL0e..%fl_7#S8+D@&eaN
<u8qFJ,fTO":,R+.U_Jj"nE3I5_&h8!X,A-(j^=U49Pp$+@(GWJZ/^*?<nZa!<NB0&0O5GWdpdE(W\so
!!*-(#S<@Q@-H,Endlp/J,fTO"JuMCH?Fd$":,P]5_&icW<.f\>p'XY!X&c?+@'>7J>$$\a?tIX!<NB0
&==qTkg]k-&0O5g!!*-(V@"/dFb)XX#S8+DJ,k/"!et#e+:eJS":,P]5[^UBTiW&O6\#.;!X&c?QmuM-
eHPLT+@(GW!<ND$$5e)3JNO&@&0O5g!.h*NL0e..%fl_7#S8+D@&eaN<u8qFJ,fTO":,R+.U_Jj"nE3I
5_&h8!X,A-(j^=U49Pp$+@(GWJZ/^*?<nZa!<NB0&0O5GWdpdE(W\so!!*-(#S<@Q@-H,Endlp/J,fTO
"JuMCH?Fd$":,P]5_&icW<.f\>p'XY!X&c?+@'>7J>$$\a?tIX!<NB0&==qTkg]k-&0O5g!!*-(V@"/d
Fb)XX#S8+DJ,k/"!et#e+:eJS":,P]5[^UBTiW&O6\#.;!X&c?QmuM-eHPLT+@(GW!<ND$$5e)3JNO&@
&0O5g!.h*NL0e..%fl_7#S8+D@&eaN<u8qFJ,fTO":,R+.U_Jj"nE3I5_&h8!X,A-(j^=U49Pp$+@(GW
JZ/^*?<nZa!<NB0&0O5GWdpdE(W\so!!*-(#S<@Q@-H,Endlp/J,fTO"JuMCH?Fd$":,P]5_&icW<.f\
>p'XY!X&c?+@'>7J>$$\a?tIX!<NB0&==qTkg]k-&0O5g!!*-(V@"/dFb)XX#S8+DJ,k/"!et#e+:eJS
":,P]5[^UBTiW&O6\#.;!X&c?QmuM-eHPLT+@(GW!<ND$$5e)3JNO&@&0O5g!.h*NL0e..%fl_7#S8+D
@&eaN<u8qFJ,fTO":,R+.U_Jj"nE3I5_&h8!X,A-(j^=U49Pp$+@(GWJZ/^*?<nZa!<NB0&0O5GWdpdE
(W\so!!*-(#S<@Q@-H,Endlp/J,fTO"JuMCH?Fd$":,P]5_&icW<.f\>p'XY!X&c?+@'>7^o%XTMi3K0
;5;=a'Dq\N5_&h8!X&d&'mRaF4+4K^l(cMcjO'aCBBSFo0=9;gbL@4&r#n=U!!*-(#YYt8*dX`RrQ[LX
4?>Veg\n\94?boTZ-?TOVOlH'%fl_7#S8+D@&h#KL>Mm\0@%lcDba'QcHj9#7P?`":[I\.!!*-(#S8+4
<T*\-hC]T\O#NPldkA/TMpKldqtqU&J,fTO":.[9GlFC\RIg$Vc,nWTfI"\h'Dq\N5_&h8!X&d&(&1Hi
DjSKlO3YM5/kMq3f]NbG!X&c?+@'>7^h4^7gTsBtNujj?0l;M94gE<T!X&c?+@(Im<.W@ZoX5S!Nui.5
^Q:?>VOlH'%fl_7#S8+D@&h$*(j_OZ3'5e%q4%&ST%N3:!<NB0&0NZ4i;E6>;m%iT?urT;:E+VH;t"gL
s7a"Kq+k[/S3MIMH?PS"<VY47H=EL29*4u\_2Bq/jb5l&^6Goe$XW=4i'i+%kD[HsQX&HXpW[dZmITu@
Ii"a?#!VFFhUp\4mJlhE?=%.AD>\[^I'LHWH2"0(ntVg@I_>OcJPT$9*ae+&ip8!n?^39O]XE7Re+;PM
lbi&_hf-9"%QAUQeK$lemI8gcEdmbr05pTagH3(DZN4lcp\eMAIJS;^5<_*<ITCC]fBcf"cD/FXVk<TD
hrWB0m@:@E`lXuGNumKajMi#6aaJVeq,quhG(,q$QZr<%ht&U]7(9XLn)DN+h],s-*UV_ZhCW!Gf>Z\q
0&AS#q0`2s+((V+Ws?J97ooj055q)l]4uV7F0L#ca/?CjqTa4:DEd458(l_+o1sZ4>b"$D4*U5SquCj3
U$a)]^1m=-cH`#qoPWEio,iGHU[[9Zh]TJEjA>@.Sir']=6c+FjQ`A.\SZShmJ]_=&$MMZHdf<Ak8b%V
qWWdTo%gl@GiM9jip+kOX5?$SD@%r1o/oaO5JD@(0((o.Da)%O95[PO`LR7t-ff7@*aWdbVT2J\AN@MH
b3rpAaOtS3n-XL+3iCSjepFi\a5#3,SXlD0]h;ESmbq[DqQ6*V>GnBCY'fmcp()g<QQ/3=r]tjYkmd[g
c!A$Zi.igik-F;iP<7smDQYWP]=R*PIX%d:^$D9HrrR@.B;^MD?bP(iF8qb[oBO<^h)i7F1qEGc3P5#o
Y#!"3%IMF5QVZ(Am_<pfdG]0.d-kHDipq9lo^queKXu@`T5YnGGP1f@G5,BgGjY2:Gdr*%2g9H6`m8j9
dEZYo0qRot0&Pp`I\c>FI@f5As*SqbXEQXOi#A'^5Cg!<LCbN!/q6e[^Cn'Qg;!Z:I^X@+Zg/RCZPG0o
?!_`c_="mY7`O<Yn`_DY5!OPnHca_Ia6U'PEV%Q04cUU+cL(GqS&F,Q`-$WpPML:Y]=iEPH^j3Zl<f9*
H1^=_/+g7&S_("tfj/R24h^l]`?Fodk&gLEg\o&(rudfUfi"F-IEs!@Zg94aT:P?So:sdRXa+o4of1]S
-,5kF[uBJ\YCC`tmrS<4qp,1)hd>s<m-sZ*SQpTO5'>iE_gC:Qe[*<nS%-'"h4s!+ii@^PLRU<;IFJ2T
bAU.Bp\akM?X:2=VaIUNo])t_GOGQ]aJ6YLLI]JNm[kR]4BtXqTZ>:Jk2apb_nA9>[W=Mlr+rVSHH(U7
jO'a#me=iO-c2D^:9Hd/p=FT;GQ.$N]Dm_8EqB!g#B,'O)gui,5e)=BRg7+aIUW!k"J>H!qa]Y@kAPjb
b,;nial;&>j+fWi:@?oP@m>p4r,qr0m,?3[4SpAY^Ghd2h`f4driD0:c]s]l*dMrNMi3Y#`@i'`2grOJ
HKq&e83c2GJ$)S2ULsPnj6i*pLG-Ttcf/584b\(P8UWU*G$h<e^?(rYhRO:IL[Rl[M%8G0mV6*YmD&IG
Ie1;*hpH>EGI%68G27(\r94"*h$#`54e3V=n\&kp2d\F;*hD1N277e7"ndZ.9:h9HLW/qO:Nero*AgQp
$7r<BS#1u0B_u`']=*L2^TW+L[AusoA*2ck2r8u+l.Q#ROGDW*H@YgeSDSV\a.)JYnbq3(]^f;Hm?#XT
%.?QSn$g\^?6:4p]19o`h4HKHUO.2oG<\/q4M6CH9l(;8Vk3=J,^?uomGm0'q!O;XCoN1s-D(0YoW$]g
r=AG^WK2>nU[PrY?%.[er9/G!*[`=JfDfsJURN3NI/T8Xh&gZ]YMK+qH2D17p>L&`A*H;FI-IVdVglLm
cMkkiX5*W?J+hBQ]n`5ADgkaddlYkr/j>E'Hh0%TcON2-55\j]n?^fUdeV/Z(&*4+4hmR3V`-8HWuc_]
^N3c.DXQN?ZFek:n1<#TgCA/5q[RfkTKg(%\9A9$h>)oslIhQZ2r@k\pBcU:XLGh,A92tsi=hior*41:
Ug2]#BKWltk^*(SNgiP^T,tACrk*Nhgjb*K8'RURF%?2SA+K/\j1CA[4!3G<-+Bf8m*5_*'6:V*Sa5[n
Y<VU.=-br"J(CqPqa\s"jU\PfQ`fq%Y!0_AotA+d''J8%HfklE>b/B_lf5m<\iqb`[l8A.p2H:4cDNkU
p<F>Nqe+mUS;Wj<GAcp,f:.+rG:l'@'YV'@n;Q5C]k:^pHi^jOMo3I"qMEnC-i%V1a%nkjmQ;>)5JM+(
_ng,8pZ(,Do\ub+rl!X)rb'?HhqA"J`Nt$*F2%;>p\$E$nAY"]c`=OFh>OX+\9g.F\@X]6]/QXs9cecL
g-6>CN;L/4\n(iClh2-XQesqJmCn3ZIXg)-i%sj"m2,H]PB$:]i*q0PY.ga'>^r)$>qWG_Y4cu3h>19g
o$o,Sbr=REX"-EK+as44hKqL.Wnh"UhY#2RQQp%Oj)a:,J&?JR3V4ABmZ6qO3P?DYVan:oheD:+k&RZn
J!S`:#%+"FbF\u&nU8\X+5]8M\pqr\S]<\(P.pf\cM@,ZG:pOLc!?pTnE/[,rbp.j]DaGlDL]%'o>,<_
jk^GaG>A4r\OY6n?upYmh_ne'f72h"n,8mU]#W.g4L?aOs)#R1[!^9/?=:LO?f->^Pb.&CIEDNTU_aRD
"MQ,_(\aO6HER9Mmd;_RG?aOb^>n(_j&9=,T.TQFhpH>6Oa<%g?X<2Ds6]f2DZ%%SkUkok6Z8=i]&0^)
B0K&^bkF7"+ppIp8,VF3%)$fF9Ch0r$ipD4#S<@G@-B3(M]$gkMP2ufPP]P3!<NB0&==SJkUjd#45N[L
H7KF*!X&c?Qlof#/]H'uhG"l6.h)L\":,R++COCb`R$^'9c87-%06M5#S<@G@-B2]co^)Y)1!eB!<NB0
&==SJkUjd#45N[LH7KF*!X&c?Qlof#/]H'uhG"l6.h)L\":,R++COCb`R$^'9c87-%06M5#S<@G@-B2]
co^)Y)1!eB!<NB0&==SJkUjd#45N[LH7KF*!X&c?Qlof#/]H'uhG"l6.h)L\":,R++COCb`R$^'9c87-
%06M5#S<@G@-B2]co^)Y)1!eB!<NB0&==SJkUjd#45N[LH7KF*!X&c?Qlof#/]H'uhG"l6.h)L\":,R+
+COCb`R$^'9c87-%06M5#S<@G@-B2]co^)Y)1!eB!<NB0&==SJkUjd#45N[LH7KF*!X&c?Qlof#/]H'u
hG"l6.h)L\":,R++COCb`R$^'9c87-%06M5#S<@G@-B2]co^)Y)1!eB!<NB0&==SJkUjd#45N[LH7KF*
!X&c?Qlof#/]H'uhG"l6.h)L\":,R++COCb`R$^'9c87-%06M5#S<@G@-B2]co^)Y)1!eB!<NB0&==SJ
khYBrGMg"r1A$TN;hj.$6\#.;!X'hU(j^tMp<mREXUk,\L>MH<b0X@,#S8+DJA;9g6gl@?D;P3cQ`kd\
Ir+<hn"pN,Q%f8>!X&d&&2<`onr<*C^A-sT=1_s0ms$d&kcHZE#S8+D@"Np&GFdW/G'E)jk4RO\L>MH<
b0X@,#S8+DJA;9g6gm))Cjs+qj(gm3]eoAAG>k!OL>FCIJ,fTO"==Du)L<3lJ*=SZH"ZllbMV3jgcRB2
r-m^Ra1J<8hJE1hj5&Dsb7OnY)?L$I&0NYmi.mdDrp_(Yme;0:J]F83rofD-pIBMc4T;,#k(h9-gLhLP
T6Dn_aUs#W\MuZ4hMo4Y9_^()G7+EQ":,R++>E$t^$XM+q<*4aGOPLqp,IKORgBVmh^ns:&0O5g^]]3c
6go6@PKcns0DB\4d&RQ8+[CPX!<NBN#T.kHq<"a4gV7&@mZM5"6i2'8!<NB0&0NYm^sK^8>FQ^ar/4W_
h&dS^Fb)XX#S8+DJA;9g6gp*Y]sQI?qtcpMMlYp,nBh0j6@]%:!X&d&&2<aB@d)>Gndlp/J,fTO'*J`W
V&4N$JNO&@&0O5g^]X[*D^gEI>p'XY!X&c?+>?*scs)C$<u8qFJ,fTO":.[40_CZ?kg]k-&0O5g!!*-7
":Vu?(j^=U49Pp$+@(Im"9Cl..>D/7+:eJS":,P]0L<M$>Df+U(W\so!!*-(#YYd`oTitMeHPLT+@(GW
!<No;%)&JSH?Fd$":,P]5_-WQ!CLcSL0e..%fl_7#S8+46,:iOMP4)fa?tIX!<NB09FroMQ=B(."nE3I
5_&h8!YY\F]qlQlFb)XX#S8+DJA;9g6Z4E.?<nZa!<NB0&0NYm^sH;CTiW&O6\#.;!X&d&&2<aB@d)>G
ndlp/J,fTO'*J`WV&4N$JNO&@&0O5g^]X[*D^gEI>p'XY!X&c?+>?*scs)C$<u8qFJ,fTO":.[40_CZ?
kg]k-&0O5g!!*-7":Vu?(j^=U49Pp$+@(Im"9Cl..>D/7+:eJS":,P]0L<M$>Df+U(W\so!!*-(#YYd`
oTitMeHPLT+@(GW!<No;%)&JSH?Fd$":,P]5_-WQ!CLcSL0e..%fl_7#S8+46,:iOMP4)fa?tIX!<NB0
9FuGG6gr7G>>lk2["#Or+@(GW!<No;?Hgd.38&,n55.QmnM0\$!dP%_+@(GWJI)B2B'=(bc7_BU#74l'
eHPLT+@(GW!<No;?I7&'=U`!T5TTt0#S8+D@"Np&[hM35/s(hg!<NB0&==SJkUjd#Wsdu35_&h8!X'hU
(j\h0o]cL'#S8+DJ,k-,!f#Q0%)'5;*WcHM&0O5GJq0Q('LT&VOG<f:!X&c?Qlof#/]H);$fiHrJ,fTO
"==BkH:p!bl2l5:&0O5g!.bFXL>Gf:]t-HM!X&c?+@'=dJ>'Fd6a&,(LB%>V":,R++COCb`R(Xnj<6d=
!!*-(-3tH79/6)(!dP%_+@(GWJI)C4hGOcq\j.;<":,P]5[]1oTsk_'Y:bol!!*-(#S<@G@-B2]d&RQ8
+[CPX!<NBN#T.k\1%a`4GmFs(5_&ic#m,k<;@L7M5TTt0#S8+D@"Np&[hM35/s(hg!<NB0&==SJkUjd#
Wsdu35_&h8!X'hU(j\h0o]cL'#S8+DJ,k-,!f#Q0%)'5;*WcHM&0O5GJq0Q('LT&VOG<f:!X&c?Qlof#
/]H);$fiHrJ,fTO"==BkH:p!bl2l5:&0O5g!.bFXL>Gf:]t-HM!X&c?+@'=dJ>'Fd6a&,(LB%>V":,R+
+COCb`R(Xnj<6d=!!*-(-3tH79/6)(!dP%_+@(GWJI)C4hGOcq\j.;<":,P]5[]1oTsk_'Y:bol!!*-(
#S<@G@-B2]d&RQ8+[CPX!<NBN#T.k\1%a`4GmFs(5_&ic#m,k<;@L7M5TTt0#S8+D@"Np&[hM35/s(hg
!<NB0&==SJkUjd#Wsdu35_&h8!X'hU(j\h0o]cL'#S8+DJ,k-,!f#Q0%)'5;*WcHM&0O5GJq0Q('LT&V
OG<f:!X&c?Qlof#/]H);$fiHrJ,fTO"==BkH:p!bl2l5:&0O5g!.bFXL>Gf:]t-HM!X&c?+@'=dJ>'Fd
6a&,(LB%>V":,R++COCb`R(Xnj<6d=!!*-(-3tH79/6)(!dP%_+@(GWJI)C4hGOcq\j.;<":,P]5[]1o
Tsk_'Y:bol!!*-(#S<@G@-B2]d&RQ8+[CPX!<NBN#T.k\1%a`4GmFs(5_&ic#m,k<;@L7M5TTt0#S8+D
@"Np&[hM35/s(hg!<NB0&==SJkUjd#Wsdu35_&h8!X'hU(j\h0o]cL'#S8+DJ,k-,!f#Q0%)'5;*WcHM
&0O5GJq0Q('LT&VOG<f:!X&c?Qlof#/]H);$fiHrJ,fTO"==BkH:p!bl2l5:&0O5g!.bFXL>Gf:]t-HM
!X&c?+@'=dJ>'Fd6a&,(LB%>V":,R++COCb`R(Xnj<6d=!!*-(-3tH79/6)(!dP%_+@(GWJI)C4hGOcq
\j.;<":,P]5[]1oTsk_'Y:bol!!*-(#S<@G@-B2]d&RQ8+[CPX!<NBN#T.k\1%a`4GmFs(5_&ic#m,k<
;@L7M5TTt0#S8+D@"Np&[hM35/s(hg!<NB0&==SJkUjd#Wsdu35_&h8!X'hU(j\h0o]cL'#S8+DJ,k-,
!p?%/6gm;L]t-HM!X&c?+@'=d_"jbMk4E`0pB6&D(j^=U49Pp$+@(Im#_DTRZd8Zs,6Sckkg]k-&0O5g
!!*-(V@"/dFb)XX#S8+DJ,k/"!et#e+:eJS":,P]5[^UBTiW&O6\#.;!X&c?QmuM-eHPLT+@(GW!<ND$
$5e)3JNO&@&0O5g!.h*NL0e..%fl_7#S8+D@&eaN<u8qFJ,fTO":,R+.U_Jj"nE3I5_&h8!X,A-(j^=U
49Pp$+@(GWJZ/^*?<nZa!<NB0&0O5GWdpdE(W\so!!*-(#S<@Q@-H,Endlp/J,fTO"JuMCH?Fd$":,P]
5_&icW<.f\>p'XY!X&c?+@'>7J>$$\a?tIX!<NB0&==qTkg]k-&0O5g!!*-(V@"/dFb)XX#S8+DJ,k/"
!et#e+:eJS":,P]5[^UBTiW&O6\#.;!X&c?QmuM-eHPLT+@(GW!<ND$$5e)3JNO&@&0O5g!.h*NL0e..
%fl_7#S8+D@&eaN<u8qFJ,fTO":,R+.U_Jj"nE3I5_&h8!X,A-(j^=U49Pp$+@(GWJZ/^*?<nZa!<NB0
&0O5GWdpdE(W\so!!*-(#S<@Q@-H,Endlp/J,fTO"JuMCH?Fd$":,P]5_&icW<.f\>p'XY!X&c?+@'>7
J>$$\a?tIX!<NB0&==qTkg]k-&0O5g!!*-(V@"/dFb)XX#S8+DJ,k/"!et#e+:eJS":,P]5[^UBTiW&O
6\#.;!X&c?QmuM-eHPLT+@(GW!<ND$$5e)3JNO&@&0O5g!.h*NL0e..%fl_7#S8+D@&eaN<u8qFJ,fTO
":,R+.U_Jj"nE3I5_&h8!X,A-(j^=U49Pp$+@(GWJZ/^*?<nZa!<NB0&0O5GWdpdE(W\so!!*-(#S<@Q
@-H,Endlp/J,fTO"JuMCH?Fd$":,P]5_&icW<.f\>p'XY!X&c?+@'>7J>$$\a?tIX!<NB0&==qTkg]k-
&0O5g!!*-(V@"/dFb)XX#S8+DJ,k/"!et#e+:eJS":,P]5[^UBTiW&O6\#.;!X&c?QmuM-eHPLT+@(GW
!<ND$$5e)3JNO&@&0O5g!.h*NL0e..%fl_7#S8+D@&eaN<u8qFJ,fTO":,R+.U_Jj"nE3I5_&h8!X,A-
(j^=U49Pp$+@(GWJZ/^*?<nZa!<NB0&0O5GWdpdE(W\so!!*-(#S<@Q@-H,Endlp/J,fTO"JuMCH?Fd$
":,P]5_&icW<.f\>p'XY!X&c?+@'>7J>$$\a?tIX!<NB0&==qTkg]k-&0O5g!!*-(V@"/dFb)XX#S8+D
J,k/"!et#e+:eJS":,P]5[^UBTiW&O6\#.;!X&c?QmuM-eHPLT+@(GW!<ND$$5e)3JNO&@&0O5g!.h*N
L0e..%fl_7#S8+D@&eaN<u8qFJ,fTO":,R+.U_Jj"nE3I5_&h8!X,A-(j^=U49Pp$+@(GWJZ/^*?<nZa
!<NB0&0O5GWdpdE(W\so!!*-(#S<@Q@-H,Endlp/J,fTO"JuMCH?Fd$":,P]5_&icW<.f\>p'XY!X&c?
+@'>"!rqAqr?!,pHhHR=JYBQq'784?+@(GW!<NDT..HQ+s(qGMCG0N_htgaN^sH<IM*5_^&0O5g!!*-O
'_qQ,2S5[Wf&k5<J,.62QO^HYhAT2VO[FX!!<NB0&6PL=PCN>WJ%6YIhtYLYMk=m9[;`?-o[\4qNue?*
#S8+DJACFQhZ(KCs8Hp"rH>NJrabWs_h6dq%)'5;*WcHM&0O5g_!2&or8Vrbo\S:!I.upXIdli7pN#lL
]^bl]n'qU4&0O5g!!*-(eg#.Gp%CcAmEI`)j-RO\n6eKQ?JP2NEb9G%robLjJ,fTO":2)!i5tk_fcM)X
c]RmjfIn]W#S8+DJ,k/n#e[_F^$CHcU]&PdpZ<:"%hEh:%DB><*WcHM&0O5g^j6-4rNj[pZoctP]dK;A
Cj.PiG^-I)NhKMja?tIX!<NB0&6P^CIctX`q<I\=02m.@YVl&RH")gR!X&c?+@(Im)?o!4rX4p>r:)FH
H$/@ZCZqnk`#^i?#S8+DJ,k-X$="%Rm>kT-Cqfkaidmf4aqK-W&0O5g!!*-(V@"/dFb)XX#S8+DJ,k/"
!et#e+:eJS":,P]5[^UBTiW&O6\#.;!X&c?QmuM-eHPLT+@(GW!<ND$$5e)3JNO&@&0O5g!.h*NL0e..
%fl_7#S8+D@&eaN<u8qFJ,fTO":,R+.U_Jj"nE3I5_&h8!X,A-(j^=U49Pp$+@(GWJZ/^*?<nZa!<NB0
&0O5GWdpdE(W\so!!*-(#S<@Q@-H,Endlp/J,fTO"JuMCH?Fd$":,P]5_&icW<.f\>p'XY!X&c?+@'>7
J>$$\a?tIX!<NB0&==qTkg]k-&0O5g!!*-(V@"/dFb)XX#S8+DJ,k/"!et#e+:eJS":,P]5[^UBTiW&O
6\#.;!X&c?QmuM-eHPLT+@(GW!<ND$$5e)3JNO&@&0O5g!.h*NL0e..%fl_7#S8+D@&eaN<u8qFJ,fTO
":,R+.U_Jj"nE3I5_&h8!X,A-(j^=U49Pp$+@(GWJZ/^*?<nZa!<NB0&0O5GWdpdE(W\so!!*-(#S<@Q
@-H,Endlp/J,fTO"JuMCH?Fd$":,P]5_&icW<.f\>p'XY!X&c?+@'>7J>$$\a?tIX!<NB0&==qTkg]k-
&0O5g!!*-(V@"/dFb)XX#S8+DJ,k/"!et#e+:eJS":,P]5[^UBTiW&O6\#.;!X&c?QmuM-eHPLT+@(GW
!<ND$$5e)3JNO&@&0O5g!.h*NL0e..%fl_7#S8+D@&eaN<u8qFJ,fTO":,R+.U_Jj"nE3I5_&h8!X,A-
(j^=U49Pp$+@(GWJZ/^*?<nZa!<NB0&0O5GWdpdE(W\so!!*-(#S<@Q@-H,Endlp/J,fTO"JuMCH?Fd$
":,P]5_&icW<.f\>p'XY!X&c?+@'>7J>$$\a?tIX!<NB0&==qTkg]k-&0O5g!!*-(V@"/dFb)XX#S8+D
J,k/"!et#e+:eJS":,P]5[^UBTiW&O6\#.;!X&c?QmuM-eHPLT+@(GW!<ND$$5e)3JNO&@&0O5g!.h*N
L0e..%fl_7#S8+D@&eaN<u8qFJ,fTO":,R+.U_Jj"nE3I5_&h8!X,A-(j^=U49Pp$+@(GWJZ/^*?<nZa
!<NB0&0O5GWdpdE(W\so!!*-(#S<@Q@-H,Endlp/J,fTO"JuMCH?Fd$":,P]5_&icW<.f\>p'XY!X&c?
+@'>7J>$$\a?tIX!<NB0&==qTkg]k-&0O5g!!*-(V@"/dFb)XX#S8+DJ,k/"!et#e+:eJS":,P]5[^UB
TiW&O6\#.;!X&c?QmuM-eHPLT+@(GW!<ND$$5e)3JNO&@&0O5g!.h*NL0e..%fl_7#S8+D@&eaN<u8qF
J,fTO":,R+.U_Jj"nE3I5_&h8!X,A-(j^=U49Pp$+@(GWJZ/^*?<nZa!<NB0&0O5GWdpdE(W\so!!*-(
#S<@Q@-H,Endlp/J,fTO"JuMCH?Fd$":,P]5_&icW<.f\>p'XY!X&c?+@'>7J>$$\a?tIX!<NB0&==qT
kg]k-&0O5g!!*-(V@"/dFb)XX#S8+DJ,k/"!et#e+:eJS":,P]5[^UBTiW&O6\#.;!X&c?QmuM-eHPLT
+@(GW!<ND$$5e)3JNO&@&0O5g!.h*NL0e..%fl_7#S8+D@&eaN<u8qFJ,fTO":,R+.U_Jj"nE3I5_&h8
!X,A-(j^=U49Pp$+@(GWJZ/^*?<nZa!<NB0&0O5GWdpdE(W\so!!*-(#S<@Q@-H,Endlp/J,fTO"JuMC
H?Fd$":,P]5_&icW<.f\>p'XY!X&c?+@'>7J>$$\a?tIX!<NB0&==qTkg]k-&0O5g!!*-(V@"/dFb)XX
#S8+DJ,k/"!et#e+:eJS":,P]5[^UBTiW&O6\#.;!X&c?QmuM-eHPLT+@(GW!<ND$$5e)3JNO&@&0O5g
!.h*NL0e..%fl_7#S8+D@&eaN<u8qFJ,fTO":,R+.U_Jj"nE3I5_&h8!X,A-(j^=U49Pp$+@(GWJZ/^*
?<nZa!<NB0&0O5GWdpdE(W\so!!*-(#S<@Q@-H,Endlp/J,fTO"JuMCH?Fd$":,P]5_&icW<.f\>p'XY
!X&c?+@'>7J>$$\a?tIX!<NB0&==qTkg]k-&0O5g!!*-(V@"/dFb)XX#S8+DJ,k/"!et#e+:eJS":,P]
5[^UBTiW&O6\#.;!X&c?QmuM-eHPLT+@(GW!<ND$$5e)3JNO&@&0O5g!.h*NL0e..%fl_7#S8+D@&eaN
<u8qFJ,fTO":,R+.U_Jj"nE3I5_&h8!X,A-(j^=U49Pp$+@(GWJZ/^*?<nZa!<NB0&0O5GWdpdE(W\so
!!*-(#S<@Q@-H,Endlp/J,fTO"JuMCH?Fd$":,P]5_&icW<.f\>p'XY!X&c?+@'>7J>$$\a?tIX!<NB0
&==qTkg]k-&0O5g!!*-(V@"/dFb)XX#S8+DJ,k/"!et#e+:eJS":,P]5[^UBTiW&O6\#.;!X&c?QmuM-
eHPLT+@(GW!<ND$$5e)3JNO&@&0O5g!.h*NL0e..%fl_7#S8+D@&eaN<u8qFJ,fTO":,R+.U_Jj"nE3I
5_&h8!X,A-(j^=U49Pp$+@(GWJZ/^*?<nZa!<NB0&0O5GWdpdE(W\so!!*-(#S<@Q@-H,Endlp/J,fTO
"JuMCH?Fd$":,P]5_&icW<.f\>p'XY!X&c?+@'>7J>$$\a?tIX!<NB0&==qTkg]k-&0O5g!!*-(V@"/d
Fb)XX#S8+DJ,k/"!et#e+:eJS":,P]5[^UBTiW&O6\#.;!X&c?QmuM-eHPLT+@(GW!<ND$$5e)3JNO&@
&0O5g!.h*NL0e..%fl_7#S8+D@&eaN<u8qFJ,fTO":,R+.U_Jj"nE3I5_&h8!X,A-(j^=U49Pp$+@(GW
JZ/^*?<nZa!<NB0&0O5GWdpdE(W\so!!*-(#S<@Q@-H,Endlp/J,fTO"JuMCH?Fd$":,P]5_&icW<.f\
>p'XY!X&c?+@'>7J>$$\a?tIX!<NB0&==qTkg]k-&0O5g!!*-(V@"/dFb)XX#S8+DJ,k/"!et#e+:eJS
":,P]5[^UBTiW&O6\#.;!X&c?QmuM-eHPLT+@(GW!<ND$$5e)3JNO&@&0O5g!.h*NL0e..%fl_7#S8+D
@&eaN<u8qFJ,fTO":,R+.U_Jj"nE3I5_&h8!X,A-(j^=U49Pp$+@(GWJZ/^*?<nZa!<NB0&0O5GWdpdE
(W\so!!*-(#S<@Q@-H,Endlp/J,fTO"JuMCH?Fd$":,P]5_&icW<.f\>p'XY!X&c?+@'>7J>$$\a?tIX
!<NB0&==qTkg]k-&0O5g!!*-(V@"/dFb)XX#S8+DJ,k/"!et#e+:eJS":,P]5[^UBTiW&O6\#.;!X&c?
QmuM-eHPLT+@(GW!<NC)..H<RJ%.Q7khZ!)F^XF8nAHA.":,P]5_&iceHpWu]ru61s6SRbUXri+CqfSY
idmf4^(Ykc&0O5g!!*-(<[[BL?iQ0/s5m\e_6:=dD;P3cQ`kd\]5Xu3o[\4qNue?*#S8+DJABkASp]Y-
bEq[7rbD=imp$q3FRuPeK<:iV\eBGg&0O5g!!*-(egBn&J,%:MbE"Q2n_;<kqNK1i%hEj81\Br6GmFs(
5_&h8!p^Qqlcn>$ZhaFbk\ED-Gd)P*H"Pq.rQ+`u!dP%_+@(GW!<VR!\?kf+o?6%I^:ef)GPLb'+!0d(
h?t9n?dc#s_&kH9#S8+DJ,k/n#X!D41Adi]rVE.6B]sk:eoP<8W":(:J,fTO"P+gek3huH+'p#dbu_Z.
q8^*+^SlR*Y^:*JeHPLT+@(GW!<NDT,Ok#k?07pLp+J@S^3fOpjsU%mD`g/7^"Lc5$fiHrJ,fTO":2)(
i:Y?1<sRW1FaNeJWB<;q)LC^2Yt#<*!X&c?+@'=O!l+Qr5Q@3YrbhVak/SSDig!TS$O9m'DfmH$p`VnQ
!!*-(#cpbY-eEi>aq(r8+2,&7I!bSuSio1ioN$0FNunE+#S8+DJA>+b6a&,(LB%>V":,P]0NGp8Wsdu3
5_&h8!X&d&'eo:F!dP%_+@(GW!<Q1'%)'5;*WcHM&0O5g^f1>%Y:bol!!*-(#S8+4<PZt^$fiHrJ,fTO
":.[90_FW3GmFs(5_&h8!`K72]t-HM!X&c?+@(Im;uo@i/s(hg!<NB0&0NZ,^sK+ij<6d=!!*-(#YYse
o]cL'#S8+DJ,fTO;[!TC\j.;<":,P]5_-XL!CO%COG<f:!X&c?+>?g2d&RQ8+[CPX!<NB09GK8Rl2l5:
&0O5g!!*.""Ur)U5TTt0#S8+DJA>+b6a&,(LB%>V":,P]0NGp8Wsdu35_&h8!X&d&'eo:F!dP%_+@(GW
!<Q1'%)'5;*WcHM&0O5g^f1>%Y:bol!!*-(#S8+4<PZt^$fiHrJ,fTO":.[90_FW3GmFs(5_&h8!`K72
]t-HM!X&c?+@(Im;uo@i/s(hg!<NB0&0NZ,^sK+ij<6d=!!*-(#YYseo]cL'#S8+DJ,fTO;[!TC\j.;<
":,P]5_-XL!CO%COG<f:!X&c?+>?g2d&RQ8+[CPX!<NB09GK8Rl2l5:&0O5g!!*.""Ur)U5TTt0#S8+D
JA>+b6a&,(LB%>V":,P]0NGp8Wsdu35_&h8!X&d&'eo:F!dP%_+@(GW!<Q1'%)'5;*WcHM&0O5g^f1>%
Y:bol!!*-(#S8+4<PZt^$fiHrJ,fTO":.[90_FW3GmFs(5_&h8!`K72]t-HM!X&c?+@(Im;uo@i/s(hg
!<NB0&0NZ,^sK+ij<6d=!!*-(#YYseo]cL'#S8+DJ,fTO;[!TC\j.;<":,P]5_-XL!CO%COG<f:!X&c?
+>?g2d&RQ8+[CPX!<NB09GK8Rl2l5:&0O5g!!*.""Ur)U5TTt0#S8+DJA>+b6a&,(LB%>V":,P]0NGp8
Wsdu35_&h8!X&d&'eo:F!dP%_+@(GW!<Q1'%)'5;*WcHM&0O5g^f1>%Y:bol!!*-(#S8+4<PZt^$fiHr
J,fTO":.[90_FW3GmFs(5_&h8!`K72]t-HM!X&c?+@(Im;uo@i/s(hg!<NB0&0NZ,^sK+ij<6d=!!*-(
#YYseo]cL'#S8+DJ,fTO;[!TC\j.;<":,P]5_-XL!CO%COG<f:!X&c?+>?g2d&RQ8+[CPX!<NB09GK8R
l2l5:&0O5g!!*.""Ur)U5TTt0#S8+DJA>+b6a&,(LB%>V":,P]0NGp8Wsdu35_&h8!X&d&'eo:F!dP%_
+@(GW!<Q1'%)'5;*WcHM&0O5g^f1>%Y:bol!!*-(#S8+4<PZt^$fiHrJ,fTO":.[90_FW3GmFs(5_&h8
!`K72]t-HM!X&c?+@(Im;uo@i/s(hg!<NB0&0NZ,^sK+ij<6d=!!*-(#YYseo]cL'#S8+DJ,fTO;[!TC
\j.;<":,P]5_-XL!CO%COG<f:!X&c?+>?g2d&RQ8+[CPX!<NB09GK8Rl2l5:&0O5g!!*.""Ur)U5TTt0
#S8+DJA>+b6a&,(LB%>V":,P]0NGp8Wsdu35_&h8!X&d&'eo:F!dP%_+@(GW!<Q1'%)'5;*WcHM&0O5g
^f1>%Y:bol!!*-(#S8+4<PZt^$fiHrJ,fTO":.[90_FW3GmFs(5_&h8!`K72]t-HM!X&c?+@(Im;uo@i
/s(hg!<NB0&0NZ,^sK+ij<6d=!!*-(#YYseo]cL'#S8+DJ,fTO;[!TC\j.;<":,P]5_-XL!CO%COG<f:
!X&c?+>?g2d&RQ8+[CPX!<NB09GK8Rl2l5:&0O5g!!*.""Ur)U5TTt0#S8+DJA>+b6a&,(LB%>V":,P]
0NGp8Wsdu35_&h8!X&d&'eo:F!dP%_+@(GW!<Q1'%)'5;*WcHM&0O5g^f1>%Y:bol!!*-(#S8+4<PZt^
$fiHrJ,fTO":.[90_FW3GmFs(5_&h8!`K72]t-HM!X&c?+@(Im;uo@i/s(hg!<NB0&0NZ,^sK+ij<6d=
!!*-(#YYseo]cL'#S8+DJ,fTO;[!TC\j.;<":,P]5_-XL!CO%COG<f:!X&c?+>?g2d&RQ8+[CPX!<NB0
9GK8Rl2l5:&0O5g!!*.""Ur)U5TTt0#S8+DJA>+b6a&,(LB%>V":,P]0NGp8Wsdu35_&h8!X&d&'eo:F
!dP%_+@(GW!<Q1'%)'5;*WcHM&0O5g^f1>%Y:bol!!*-(#S8+4<PZt^$fiHrJ,fTO":.[90_FW3GmFs(
5_&h8!`K72]t-HM!X&c?+@(Im;uo@i/s(hg!<NB0&0NZ,^sK+ij<6d=!!*-(#YYseo]cL'#S8+DJ,fTO
;[!TC\j.;<":,P]5_-XL!CO%COG<f:!X&c?+>?g2d&RQ8+[CPX!<NB09GK8Rl2l5:&0O5g!!*.""Ur)U
5TTt0#S8+DJA>+b6a&,(LB%>V":,P]0NGp8Wsdu35_&h8!X&d&'eo:F!dP%_+@(GW!<Q1'%)'5;*WcHM
&0O5g^f1>%Y:bol!!*-(#S8+4<PZt^$fiHrJ,fTO":.[90_FW3GmFs(5_&h8!`K72]t-HM!X&c?+@(Im
;uo@i/s(hg!<NB0&0NZ,^sK+ij<6d=!!*-(#YYseo]cL'#S8+DJ,fTO;[!TC\j.;<":,P]5_-XL!CO%C
OG<f:!X&c?+>?g2d&RQ8+[CPX!<NB09GK8Rl2l5:&0O5g!!*.""Ur)U5TTt0#S8+DJA>+b6a&,(LB%>V
":,P]0NGp8Wsdu35_&h8!X&d&'eo:F!dP%_+@(GW!<Q1'%)'5;*WcHM&0O5g^f1>%Y:bol!!*-(#S8+4
<PZt^$fiHrJ,fTO":.[90_FW3GmFs(5_&h8!`K72]t-HM!X&c?+@(Im;uo@i/s(hg!<NB0&0NZ,^sK+i
j<6d=!!*-(#YYseo]cL'#S8+DJ,fTO;[!TC\j.;<":,P]5_-XL!CO%COG<f:!X&c?+>?g2d&RQ8+[CPX
!<NB09GK8Rl2l5:&0O5g!!*.""Ur)U5TTt0#S8+DJA>+b6a&,(LB%>V":,P]0NGp8Wsdu35_&h8!X&d&
'eo:F!dP%_+@(GW!<Q1'%)'5;*WcHM&0O5g^f1>%Y:bol!!*-(#S8+4<PZt^$fiHrJ,fTO":.[90_FW3
GmFs(5_&h8!`K72]t-HM!X&c?+@(Im;uo@i/s(hg!<NB0&0NZ,^sK+ij<6d=!!*-(#YYseo]cL'#S8+D
J,fTO;[!TC\j.;<":,P]5_-XL!CO%COG<f:!X&c?+>?g2d&RQ8+[CPX!<NB09GK8Rl2l5:&0O5g!!*."
"Ur)U5TTt0#S8+DJA>+b6a&,(LB%>V":,P]0NGp8Wsdu35_&h8!X&d&'eo:F!dP%_+@(GW!<Obcpu)2M
i9K6qGMdbuJYBQi'78dO+@(GW!<NC)-h,mZD)Rl5]pj>O]sQI?C\bcm>Mk9#H3b')5_&h8!im"02h1=h
[X\$Is7LR4f&k5<J,.62QO^HYhYL"6d6iEa!<NB0&6PF;7kah[jibF:b/`7TI-:(YVjh$F*,H(teXb@Q
LB%>V":,P]YW@=_s52pr^Nf#'hemVfT57h`Gd+fKTiW&O6\#.;!X&c?=J<ON+2%UDs06uboCLcg?i.[W
KAB0fY:bol!!*-(#S8,_6@o0Dg&01rFo1mpS_YeLJ,eKDmcET!H/nWDhl@.G+[CPX!<NB0X@M3jqj5uQ
\G(LMJ,dV4rmspbH7sSnIbD$D"b5SE+@(GW!<NDT,Ojj`l*q8-No0`Vs8MH205;RMls:TVFb)XX#S8+D
J,k/n#lOO3QhfkDTDc7T.kgq+:GtGjmf'C+D`g/7?,=mg$fiHrJ,fTO":2)'i7FI5\pX=Cc+i(`o@<6Y
?`*D`?u+u.m_g/2":,P]5_&iceHrnbo%Vp6s5lQEn(Y<05Q:EoYIqGP37o-qlT;@A%fl_7#S8+D@!)Mm
rn1niq%s'MH1[ku2OeW7Y]sR>Xma1L4Tl$%+@(GWJZ/^*?<nZa!<NB0&0O5GWdpdE(W\so!!*-(#S<@Q
@-H,Endlp/J,fTO"JuMCH?Fd$":,P]5_&icW<.f\>p'XY!X&c?+@'>7J>$$\a?tIX!<NB0&==qTkg]k-
&0O5g!!*-(V@"/dFb)XX#S8+DJ,k/"!et#e+:eJS":,P]5[^UBTiW&O6\#.;!X&c?QmuM-eHPLT+@(GW
!<ND$$5e)3JNO&@&0O5g!.h*NL0e..%fl_7#S8+D@&eaN<u8qFJ,fTO":,R+.U_Jj"nE3I5_&h8!X,A-
(j^=U49Pp$+@(GWJZ/^*?<nZa!<NB0&0O5GWdpdE(W\so!!*-(#S<@Q@-H,Endlp/J,fTO"JuMCH?Fd$
":,P]5_&icW<.f\>p'XY!X&c?+@'>7J>$$\a?tIX!<NB0&==qTkg]k-&0O5g!!*-(V@"/dFb)XX#S8+D
J,k/"!et#e+:eJS":,P]5[^UBTiW&O6\#.;!X&c?QmuM-eHPLT+@(GW!<ND$$5e)3JNO&@&0O5g!.h*N
L0e..%fl_7#S8+D@&eaN<u8qFJ,fTO":,R+.U_Jj"nE3I5_&h8!X,A-(j^=U49Pp$+@(GWJZ/^*?<nZa
!<NB0&0O5GWdpdE(W\so!!*-(#S<@Q@-H,Endlp/J,fTO"JuMCH?Fd$":,P]5_&icW<.f\>p'XY!X&c?
+@'>7J>$$\a?tIX!<NB0&==qTkg]k-&0O5g!!*-(V@"/dFb)XX#S8+DJ,k/"!et#e+:eJS":,P]5[^UB
TiW&O6\#.;!X&c?QmuM-eHPLT+@(GW!<ND$$5e)3JNO&@&0O5g!.h*NL0e..%fl_7#S8+D@&eaN<u8qF
J,fTO":,R+.U_Jj"nE3I5_&h8!X,A-(j^=U49Pp$+@(GWJZ/^*?<nZa!<NB0&0O5GWdpdE(W\so!!*-(
#S<@Q@-H,Endlp/J,fTO"JuMCH?Fd$":,P]5_&icW<.f\>p'XY!X&c?+@'>7J>$$\a?tIX!<NB0&==qT
kg]k-&0O5g!!*-(V@"/dFb)XX#S8+DJ,k/"!et#e+:eJS":,P]5[^UBTiW&O6\#.;!X&c?QmuM-eHPLT
+@(GW!<ND$$5e)3JNO&@&0O5g!.h*NL0e..%fl_7#S8+D@&eaN<u8qFJ,fTO":,R+.U_Jj"nE3I5_&h8
!X,A-(j^=U49Pp$+@(GWJZ/^*?<nZa!<NB0&0O5GWdpdE(W\so!!*-(#S<@Q@-H,Endlp/J,fTO"JuMC
H?Fd$":,P]5_&icW<.f\>p'XY!X&c?+@'>7J>$$\a?tIX!<NB0&==qTkg]k-&0O5g!!*-(V@"/dFb)XX
#S8+DJ,k/"!et#e+:eJS":,P]5[^UBTiW&O6\#.;!X&c?QmuM-eHPLT+@(GW!<ND$$5e)3JNO&@&0O5g
!.h*NL0e..%fl_7#S8+D@&eaN<u8qFJ,fTO":,R+.U_Jj"nE3I5_&h8!X,A-(j^=U49Pp$+@(GWJZ/^*
?<nZa!<NB0&0O5GWdpdE(W\so!!*-(#S<@Q@-H,Endlp/J,fTO"JuMCH?Fd$":,P]5_&icW<.f\>p'XY
!X&c?+@'>7J>$$\a?tIX!<NB0&==qTkg]k-&0O5g!!*-(V@"/dFb)XX#S8+DJ,k/"!et#e+:eJS":,P]
5[^UBTiW&O6\#.;!X&c?QmuM-eHPLT+@(GW!<ND$$5e)3JNO&@&0O5g!.h*NL0e..%fl_7#S8+D@&eaN
<u8qFJ,fTO":,R+.U_Jj"nE3I5_&h8!X,A-(j^=U49Pp$+@(GWJZ/^*?<nZa!<NB0&0O5GWdpdE(W\so
!!*-(#S<@Q@-H,Endlp/J,fTO"JuMCH?Fd$":,P]5_&icW<.f\>p'XY!X&c?+@'>7J>$$\a?tIX!<NB0
&==qTkg]k-&0O5g!!*-(V@"/dFb)XX#S8+DJ,k/"!et#e+:eJS":,P]5[^UBTiW&O6\#.;!X&c?QmuM-
eHPLT+@(GW!<ND$$5e)3JNO&@&0O5g!.h*NL0e..%fl_7#S8+D@&eaN<u8qFJ,fTO":,R+.U_Jj"nE3I
5_&h8!X,A-(j^=U49Pp$+@(GWJZ/^*?<nZa!<NB0&0O5GWdpdE(W\so!!*-(#S<@Q@-H,Endlp/J,fTO
"JuMCH?Fd$":,P]5_&icW<.f\>p'XY!X&c?+@'>7J>$$\a?tIX!<NB0&==qTkg]k-&0O5g!!*-(V@"/d
Fb)XX#S8+DJ,k/"!et#e+:eJS":,P]5[^UBTiW&O6\#.;!X&c?QmuM-eHPLT+@(GW!<ND$$5e)3JNO&@
&0O5g!.h*NL0e..%fl_7#S8+D@&eaN<u8qFJ,fTO":,R+.U_Jj"nE3I5_&h8!X,A-(j^=U49Pp$+@(GW
JZ/^*?<nZa!<NB0&0O5GWdpdE(W\so!!*-(#S<@Q@-H,Endlp/J,fTO"JuMCH?Fd$":,P]5_&icW<.f\
>p'XY!X&c?+@'>7J>$$\a?tIX!<NB0&==qTkg]k-&0O5g!!*-(V@"/dFb)XX#S8+DJ,k/"!et#e+:eJS
":,P]5[^UBTiW&O6\#.;!X&c?QmuM-eHPLT+@(GW!<ND$$5e)3JNO&@&0O5g!.h*NL0e..%fl_7#S8+D
@&eaN<u8qFJ,fTO":,R+.U_Jj"nE3I5_&h8!X,A-(j^=U49Pp$+@(GWJZ/^*?<nZa!<NB0&0O5GWdpdE
(W\so!!*-(#S<@Q@-H,Endlp/J,fTO"JuMCH?Fd$":,P]5_&icW<.f\>p'XY!X&c?+@'>7J>$$\a?tIX
!<NB0&==qTkg]k-&0O5g!!*-(V@"/dFb)XX#S8+DJ,k/"!et#e+:eJS":,P]5[^UBTiW&O6\#.;!X&c?
QmuM-eHPLT+@(GW!<ND$$5e)3JNO&@&0O5g!.h*NL0e..%fl_7#S8+D@&eaN<u8qFJ,fTO":,R+.U_Jj
"nE3I5_&h8!X,A-(j^=U49Pp$+@(GWJZ/^*?<nZa!<NB0&0O5GWdpdE(W\so!!*-(#S<@Q@-H,Endlp/
J,fTO"JuMCH?Fd$":,P]5_&icW<.f\>p'XY!X&c?+@'>7J>$$\a?tIX!<NB0&==qTkg]k-&0O5g!!*-(
V@"/dFb)XX#S8+DJ,k/"!et#e+:eJS":,P]5[^UBTiW&O6\#.;!X&c?QmuM-eHPLT+@(GW!<ND$$5e)3
JNO&@&0O5g!.h*NL0e..%fl_7#S8+D@&eaN<u8qFJ,fTO":,R+.U_Jj"nE3I5_&h8!X,A-(j^=U49Pp$
+@(GWJZ/^*?<nZa!<NB0&0O5GWdpdE(W\so!!*-(#S<@Q@-H,Endlp/J,fTO"JuMCH?Fd$":,P]5_&ic
<=4-CJ*m:2khZ!AcT!WN<dA/8)?L$I&0O5g^a]LorT`h4CG0N_htgaN^sH<KM*5SZ&0O5g!!*.:'R4]*
)gZF>hYd/8YC(QY?u+u.o#)S.":,P]5_&ic'ajlR07S=-oY0jdb83D!r+b1uCZqnj`#^oA#S8+DJ,k/n
$%2Zcr;#ZF6gqLR?1fS7f,l(#Y%?hI"nE3I5_&h8!X.(%n<a18LV'8ScK=<%f=ps2LBkGXRqLlChiE/g
/s(hg!<NB0&0S1uJa8m$Mp:-rG=1idbr`O=?iL&BKDj/DU#Y`;R.W'+@tt$b!X&c?+Kuo<-gtDSqiCcp
^YKfSc]RmjfIn]W#S8+DJ,k/n#e[_F^$CIRgHYN0gMd+]Qeq^khS&_RmDFS491,m8OG<f:!X&c?+Kuo<
?iTIJ++<>K^U3n;PKcn3]Dq39)\3I&f/E9d!dP%_+@(GW!<R$Mpuoh2rq`Zk52(JWea:moVXj4aCZqng
`#_,G#S8+DJ,k.#$G:i\(FK1Wj'TIilI*N"cs,[i4_b66+@(GW!<T;9fFP[_O'^OV^AYn-JYBQu'784?
+@(GW!<ND$$5e)3JNO&@&0O5g!.h*NL0e..%fl_7#S8+D@&eaN<u8qFJ,fTO":,R+.U_Jj"nE3I5_&h8
!X,A-(j^=U49Pp$+@(GWJZ/^*?<nZa!<NB0&0O5GWdpdE(W\so!!*-(#S<@Q@-H,Endlp/J,fTO"JuMC
H?Fd$":,P]5_&icW<.f\>p'XY!X&c?+@'>7J>$$\a?tIX!<NB0&==qTkg]k-&0O5g!!*-(V@"/dFb)XX
#S8+DJ,k/"!et#e+:eJS":,P]5[^UBTiW&O6\#.;!X&c?QmuM-eHPLT+@(GW!<ND$$5e)3JNO&@&0O5g
!.h*NL0e..%fl_7#S8+D@&eaN<u8qFJ,fTO":,R+.U_Jj"nE3I5_&h8!X,A-(j^=U49Pp$+@(GWJZ/^*
?<nZa!<NB0&0O5GWdpdE(W\so!!*-(#S<@Q@-H,Endlp/J,fTO"JuMCH?Fd$":,P]5_&icW<.f\>p'XY
!X&c?+@'>7J>$$\a?tIX!<NB0&==qTkg]k-&0O5g!!*-(V@"/dFb)XX#S8+DJ,k/"!et#e+:eJS":,P]
5[^UBTiW&O6\#.;!X&c?QmuM-eHPLT+@(GW!<ND$$5e)3JNO&@&0O5g!.h*NL0e..%fl_7#S8+D@&eaN
<u8qFJ,fTO":,R+.U_Jj"nE3I5_&h8!X,A-(j^=U49Pp$+@(GWJZ/^*?<nZa!<NB0&0O5GWdpdE(W\so
!!*-(#S<@Q@-H,Endlp/J,fTO"JuMCH?Fd$":,P]5_&icW<.f\>p'XY!X&c?+@'>7J>$$\a?tIX!<NB0
&==qTkg]k-&0O5g!!*-(V@"/dFb)XX#S8+DJ,k/"!et#e+:eJSs*oB>&>=@i#&sL\)C$,8a<'K*7#*p9
-*i\U=>JH2*?n(QFQnmP6onji01h<i6rm@>?F!U4<fA;>-'C,d&o2S[erho])R&CRs8W*\Zc@Q$SpI!S
kO?diq0i!cTD=n#hcU*s:d>$bZ5.E,M]O"2!X^?KJ-$'+OL9Us?M"6V'Mq$q"VacuJZK#[oV)QrVgngU
.%l(l$=kaHU),sX3!C!m5QM$&:`sNS(VT#5_C;..!X^?KJ-&j]\EH?l&5E60'Mq$q"Vf$]^dTo&J8biD
TR[(N.%iiV!\SfH",'T<!<j065QM%o(3%ZZ*[$sS$7MQt!X^?;[=F0AoDmha:d>$b'Mq&GX9Dl$U'Ct%
J-$'+TR[(NA1c`6(Hk#C"Vacu!<j06+DUuo^$#L6.A21m$7MQt!a,o@kX?!n:&tM4:d>$b'ZaIn75&t;
E!e"dJ-$'+TKq'0/pbnIKMt,:"Vacu!<obEE7'Rb+IiK?.%l(l$7M"DJ;[b+!9"Vg5QM$&:dBT5"^L\o
#7.5X!X^?KJ-$'g/`<?>4[:t1'Mq$q"VacUCB56bkQ/OLTR[(N.%l(l=UVb'71Tr)!<j065QM$&aBHAJ
07&.f$7MQt!X^?K5h5uhHI2hJ;a:?e'Mq$q"gSn_d>K%gS,s$GTR[(N.$1ieMdH#Ui=o*R!<j065_6!?
b$Xe`#>dYd"Vacu!<pmeaEk#:ap1a.!<j065QM&:(<Cg)dE2\j5QM$&:d>$bdMBoMY0kAs:d>$b'Mq$q
"k"1-HEPZ<#>dYd"Vacu!<pmeaEk#:ap1a.!<j065QM&:(<Cg)dE2\j5QM$&:d>$bdMBoMY0kAs:d>$b
'Mq$q"k"1-HEPZ<#>dYd"Vacu!<pmeaEk#:ap1a.!<j065QM&:(<Cg)dE2\j5QM$&:d>$bdMBoMY0kAs
:d>$b'Mq$q"k"1-HEPZ<#>dYd"Vacu!<pmeaEk#:ap1a.!<j065QM&:(<Cg)dE2\j5QM$&:d>$bdMBoM
Y0kAs:d>$b'Mq$q"k"1-HEPZ<#>dYd"Vacu!<pmeaEk#:ap1a.!<j065QM&:(<Cg)dE2\j5QM$&:d>$b
dMBoMY0kAs:d>$b'Mq$q"k"1-HEPZ<#>dYd"Vacu!<pmeaEk#:ap1a.!<j065QM&:(<Cg)dE2\j5QM$&
:d>$bdMBoMY0kAs:d>$b'Mq$q"k"1-HEPZ<#>dYd"Vacu!<pmeBE/&1?US6A!<<*"zzz!<*(D2ZALR+k
U>cB(QAfmX,g66*0<H5>ItdLc*l\/UE(H2u5C6G9%.o$?*g$MgtT/gMeQ;GT6(a$F4Nd1J=i5HRF,s5^
-Qrd+X*kd:3;@\K!auW!eAa>Ite:7AMkSYCag$/[p5ff"k#N06PlT+/&0_*1d5DFgp=+T^XiZ$KTrr(Y
Ye9+4d$A*[B$i#;8l^Nno18HB(go[\Bh)\'[rfs*ed\lHaK_hJ_SSRh$Tt*[Ank>+9I*]'F;@:j<oh"a
93L_kB?SD)`5#\.'NC5(!(;r>[sjR)sn8Zc>;aqpC$aqIO6Ok%Yhtq983af@@("kD6HnD"_h^(&b8jjP
AoF\d`"h*A.ECh1g8PJ[4$LY<^cX\5sg12Z0V(14,OuZdFDY\T;b+p:/T.NZKImo]W>g/$?=7mIj!@#g
lBeSNVAU[\Dr@EI7A2g[bk]Fr`1:eD5k;!d2!2U-ROO\G$ua[gfOL0BZ^1HR4!"?ludpUIPT3qN8B9=5
1SnmFpeL&"P3GeuZ^<V)Q0"Gj+te0nN*-GIn;kFr`1:oI=arr;p!.iM&TnD7K<[aL;V^[-g)D.kaC'''
oBd`OFq[I,D*oQ<\87?aTJR5'_M:nZ&3<Rlf/(48aHt'QL\n?[3[[?hC@9_nJCtD:fRO]a]`u6+Uo8H*
co8p>D-YUM#ChrU;n\AQN+!@QQX*C0u2"[k$`teOu+NB+AM,D?#QQhVt82FrU.i\?*=P])nh<@K.gu[g
b9rriY6ekEje9DRSEf%t&Zab%jXOIYo0lbiO"crh\]MpYKNV[^88chMN@"9Xit2YJ\=JYO4=8$C'D%?%
LGYYUbfS)c#+"h.+R]qquRC20spPa'5b.$bLJd?'p+EX]s_(s.cZn?\faK9Xit2YJ\=@eEUqhY!D5gfG
,gJ%>V!%^2<Ytak`,0:LN)5Fs_Ng=?D_7O-V.Td=]A_E;l`1hs,XBEmN#(na(7Bq,Hu/@JY=GiH<cXW4
WSO!i<A7ru@uM%>V!%^28+gI5q1Sm:>i+EOM/DT:`_24\2ZSmn2i8CSrPhSm)"IHB's4<\I1VNo0k0oG
h:W%t?:DloOJ7Phq/l+%N<A%Jp3l\)Hi><>'2epQeue0DJE0L!PJqeQ7-&c9821[_^XLXW?)RSg)P;QO
gHH\E\S6\\%TA^@"&K!gMPr/p]m9_V;:JOE)<.>VEY>i#^>dM>fQu^TqoDd>,sF4mS4#CdZqgzzzzzzz
zzzzzzzzzzz!<+AF#/dCpk5~>

%AXGEndBitmap
GR
GR
GS
[0.47995 0 0 0.47989 880.72258 101.3887] CT
[1 0 0 1 0 0] CT
N
-2536.875 -54.874 M
-2536.875 1384 L
101.916 1384 L
101.916 -54.874 L
cp
clip
GS
0 0 translate
102 1384 scale
%AXGBeginBitmap: java.awt.image.BufferedImage
{{
/RawData currentfile /ASCII85Decode filter def
/Data RawData /FlateDecode filter def
/DeviceGray setcolorspace
<<
  /ImageType 1
  /Decode [0 1]
  /DataSource Data
  /Height 1384
  /ImageMatrix [102 0 0 1384 0 0]
  /Width 102
  /BitsPerComponent 8
>> image
} stopped {handleerror} if
  RawData flushfile
} exec
Gb"0VZ"m98'F3Ou7>aY#hSJ$a_:;\Mi_[4D3/N-<UIZ.*ETdrF;Mp:2LdRL33_0j,EJe;ncm=<t&?bch
[IgjQ0'Uo`rI2Z/aX-"p-SKaJP*8e+7%'sL:ad"bKgMJ0-km#B6D74('FKO\Thm.=8SQM9R$n!%$\^p@
:ad"bKgMJ0-km#B6D74('FKO\Thm-O$ACg?:ad"bKgMJ0-km#B6D74('FKO\Thm-O$ACg?:ad"bKgPUI
@f@3u6D74('FKO\Thm-O$ACg?:ad"bKgMJ0-km#B6D74('FKO\Thm-O$ACg?:ad"bKgMIaQI=+D*2f.H
rqZ2T]Ch_@UN>k^e"+.A;.fj#I(l+O3mH^,c($WABscOFSK;aRIoQ0f4S6/8.t%%>'FKO\Thm-O$>!'K
;pHd*$ACg?:ad"bKgMJ0-km#B6D74('FKO\Thm-O$ACg?:ad"bKgMJ0-km#B6D74('FKO\Thm-O$ACg?
:ahRoUR488Thm-O$ACg?:ad"bKgMJ0-km#B6D74('FKO\Thm-O$ACg?:ad"bKgMJ0-km#B6D74('FKO\
Thm-O$ACg?:bGd'jbuO":ad"bKgMJ0-km#B6D74('FKO\Thm-O$ACg?:ad"bKgMJ0-km#B6D74('FKO\
Thm-O$ACg?:ad"bKgMJ<XCB<iKgMJ0-km#B6D74('FKO\Thm-O$ACg?:ad"bKgMJ0-km#B6D74('FKO\
Thm-O$ACg?:ad"bKgMJ0-km#BEd\Yna!_W/KgMJ0-km#B6D74('FKO\Thm-O$ACg?:ad"bKgMJ0/qYqV
GFA'aTCa>5n/6@ueA\qE:s'V==c0`FbuO(!`5BJJb2_#JPJMlU^X@m^2u11r=TfTo[ISVTYLD;t\Tf2\
9.5Q;#C.?1Mr2pbd+BhAe9N![]CEG3DE]S*m&t6&0<n`H.o/e]H`Qmr`Kd"UojLJKZEMp(G[B3b@XG\p
M]c6OWf)3CWRs:XY^C)]b1HQjHo(T,[S[)tgIGWJq/j9l=.&YI=-uIsqrJ8!&J5Te\J4iAG7(d'~>

%AXGEndBitmap
GR
GR
GS
[0.47995 0 0 0.47989 -336.92235 74.9948] CT
[1 0 0 1 0 0] CT
N
0.125 0.126 M
0.125 1439 L
2638.916 1439 L
2638.916 0.126 L
cp
clip
GS
0 0 translate
2537 55 scale
%AXGBeginBitmap: java.awt.image.BufferedImage
{{
/RawData currentfile /ASCII85Decode filter def
/Data RawData /FlateDecode filter def
/DeviceGray setcolorspace
<<
  /ImageType 1
  /Decode [0 1]
  /DataSource Data
  /Height 55
  /ImageMatrix [2537 0 0 55 0 0]
  /Width 2537
  /BitsPerComponent 8
>> image
} stopped {handleerror} if
  RawData flushfile
} exec
Gb"0P_/TPX#R!HVT7N_"V19U>l@tl9fRE?QOsEV^,Y=.E8Wk>jOsEV^,Y=.E8Wk>jOsEV^,Y=.E8Wk>j
OsEV^,Y=.E8Wk>jc^uISP2=WJO5Bp7O72<q!!*-(#S8+D+=g:E2=<R,!<NB0&0O4\.o>%ZmQ:IM!X&c?
+@%&":u+"s49,B`":,P]5ThRRh)4U_!!*-(#S8+D+=g:E2=<R,!<NB0&0O4\.o>%ZmQ:IM!X&c?+@%&"
:u+"s49,B`":,P]5ThRRh)4U_!!*-(#S8+D+=g:E2=<R,!<NB0&0O4\.o>%ZmQ:IM!X&c?+@%&":u+"s
49,B`":,P]5ThRRh)4U_!!*-(#S8+D+=g:E2=<R,!<NB0&0O4\.o>%ZmQ:IM!X&c?+@%&":u+"s49,B`
":,P]5ThRRh)4U_!!*-(#S8+D+=g:E2=<R,!<NB0&0O4\.o>%ZmQ:IM!X&c?+@%&":u+"s49,B`":,P]
5ThRRh)4U_!!*-(#S8+D+=g:E2=<R,!<NB0&0O4\.o>%ZmQ:IM!X&c?+@%&":u+"s49,B`":,P]5ThRR
h)4U_!!*-(#S8+D+=g:E2=@f!^j6+h&0O5g!.h/#7rS9To`u*O5_&h8!`]8^hY%!9&Kj>h!!*-(WWF6T
m/toa5_&h8!X&d."[%+c#HUFG!!*-(#S<pAGkAET=H<F_!X&c?+A`gBk\VEG*WZ<F#S8+DTISmIgHK".
!X&c?+@(HB<PYB=IDC.3#S8+DJ,k/#J4FPTJFs0Z+@(GW!<Q7%O5BR2lOb7)J,fTO"KDME^$PpQ,=$bZ
!<NB0<!>C1gBXfMJ,fTO":,R;$@)3O%p4km!<NB0&0OdanE=^2YT<fH":,P]5bKUbdG$im4TY`l&0O5g
^j?3ucmfoc~>

%AXGEndBitmap
GR
GR
GS
[0.47995 0 0 0.47989 880.72258 74.9948] CT
[1 0 0 1 0 0] CT
N
-2536.875 0.126 M
-2536.875 1439 L
101.916 1439 L
101.916 0.126 L
cp
clip
GS
0 0 translate
102 55 scale
%AXGBeginBitmap: java.awt.image.BufferedImage
{{
/RawData currentfile /ASCII85Decode filter def
/Data RawData /FlateDecode filter def
/DeviceGray setcolorspace
<<
  /ImageType 1
  /Decode [0 1]
  /DataSource Data
  /Height 55
  /ImageMatrix [102 0 0 55 0 0]
  /Width 102
  /BitsPerComponent 8
>> image
} stopped {handleerror} if
  RawData flushfile
} exec
Gb"0H0bFBc#fJFpRslV:_8)lOdR96T=%hAn;^`=eKgMJ0-km#B6M[c@ToE%#~>

%AXGEndBitmap
GR
GR
showpage
%%Trailer
%%Pages: 1
%%EOF
