%!PS-Adobe-3.0
%%Creator: (MATLAB, The Mathworks, Inc. Version 9.12.0.2170939 \(R2022a\) Update 6. Operating System: Windows 10)
%%Title: ./comp_4.fig
%%CreationDate: 2023-12-13T02:37:42
%%Pages: (atend)
%%BoundingBox:     0    74   596   769
%%LanguageLevel: 3
%%EndComments
%%BeginDefaults
%%EndDefaults
%%BeginProlog
%%EndProlog
%%BeginSetup
%%BeginResource: procset (Apache XML Graphics Std ProcSet) 1.2 0
%%Version: 1.2 0
%%Copyright: (Copyright 2001-2003,2010 The Apache Software Foundation. License terms: http://www.apache.org/licenses/LICENSE-2.0)
/bd{bind def}bind def
/ld{load def}bd
/GR/grestore ld
/GS/gsave ld
/RM/rmoveto ld
/C/curveto ld
/t/show ld
/L/lineto ld
/ML/setmiterlimit ld
/CT/concat ld
/f/fill ld
/N/newpath ld
/S/stroke ld
/CC/setcmykcolor ld
/A/ashow ld
/cp/closepath ld
/RC/setrgbcolor ld
/LJ/setlinejoin ld
/GC/setgray ld
/LW/setlinewidth ld
/M/moveto ld
/re {4 2 roll M
1 index 0 rlineto
0 exch rlineto
neg 0 rlineto
cp } bd
/_ctm matrix def
/_tm matrix def
/BT { _ctm currentmatrix pop matrix _tm copy pop 0 0 moveto } bd
/ET { _ctm setmatrix } bd
/iTm { _ctm setmatrix _tm concat } bd
/Tm { _tm astore pop iTm 0 0 moveto } bd
/ux 0.0 def
/uy 0.0 def
/F {
  /Tp exch def
  /Tf exch def
  Tf findfont Tp scalefont setfont
  /cf Tf def  /cs Tp def
} bd
/ULS {currentpoint /uy exch def /ux exch def} bd
/ULE {
  /Tcx currentpoint pop def
  gsave
  newpath
  cf findfont cs scalefont dup
  /FontMatrix get 0 get /Ts exch def /FontInfo get dup
  /UnderlinePosition get Ts mul /To exch def
  /UnderlineThickness get Ts mul /Tt exch def
  ux uy To add moveto  Tcx uy To add lineto
  Tt setlinewidth stroke
  grestore
} bd
/OLE {
  /Tcx currentpoint pop def
  gsave
  newpath
  cf findfont cs scalefont dup
  /FontMatrix get 0 get /Ts exch def /FontInfo get dup
  /UnderlinePosition get Ts mul /To exch def
  /UnderlineThickness get Ts mul /Tt exch def
  ux uy To add cs add moveto Tcx uy To add cs add lineto
  Tt setlinewidth stroke
  grestore
} bd
/SOE {
  /Tcx currentpoint pop def
  gsave
  newpath
  cf findfont cs scalefont dup
  /FontMatrix get 0 get /Ts exch def /FontInfo get dup
  /UnderlinePosition get Ts mul /To exch def
  /UnderlineThickness get Ts mul /Tt exch def
  ux uy To add cs 10 mul 26 idiv add moveto Tcx uy To add cs 10 mul 26 idiv add lineto
  Tt setlinewidth stroke
  grestore
} bd
/QT {
/Y22 exch store
/X22 exch store
/Y21 exch store
/X21 exch store
currentpoint
/Y21 load 2 mul add 3 div exch
/X21 load 2 mul add 3 div exch
/X21 load 2 mul /X22 load add 3 div
/Y21 load 2 mul /Y22 load add 3 div
/X22 load /Y22 load curveto
} bd
/SSPD {
dup length /d exch dict def
{
/v exch def
/k exch def
currentpagedevice k known {
/cpdv currentpagedevice k get def
v cpdv ne {
/upd false def
/nullv v type /nulltype eq def
/nullcpdv cpdv type /nulltype eq def
nullv nullcpdv or
{
/upd true def
} {
/sametype v type cpdv type eq def
sametype {
v type /arraytype eq {
/vlen v length def
/cpdvlen cpdv length def
vlen cpdvlen eq {
0 1 vlen 1 sub {
/i exch def
/obj v i get def
/cpdobj cpdv i get def
obj cpdobj ne {
/upd true def
exit
} if
} for
} {
/upd true def
} ifelse
} {
v type /dicttype eq {
v {
/dv exch def
/dk exch def
/cpddv cpdv dk get def
dv cpddv ne {
/upd true def
exit
} if
} forall
} {
/upd true def
} ifelse
} ifelse
} if
} ifelse
upd true eq {
d k v put
} if
} if
} if
} forall
d length 0 gt {
d setpagedevice
} if
} bd
/RE { % /NewFontName [NewEncodingArray] /FontName RE -
  findfont dup length dict begin
  {
    1 index /FID ne
    {def} {pop pop} ifelse
  } forall
  /Encoding exch def
  /FontName 1 index def
  currentdict definefont pop
  end
} bind def
%%EndResource
%%BeginResource: procset (Apache XML Graphics EPS ProcSet) 1.0 0
%%Version: 1.0 0
%%Copyright: (Copyright 2002-2003 The Apache Software Foundation. License terms: http://www.apache.org/licenses/LICENSE-2.0)
/BeginEPSF { %def
/b4_Inc_state save def         % Save state for cleanup
/dict_count countdictstack def % Count objects on dict stack
/op_count count 1 sub def      % Count objects on operand stack
userdict begin                 % Push userdict on dict stack
/showpage { } def              % Redefine showpage, { } = null proc
0 setgray 0 setlinecap         % Prepare graphics state
1 setlinewidth 0 setlinejoin
10 setmiterlimit [ ] 0 setdash newpath
/languagelevel where           % If level not equal to 1 then
{pop languagelevel             % set strokeadjust and
1 ne                           % overprint to their defaults.
{false setstrokeadjust false setoverprint
} if
} if
} bd
/EndEPSF { %def
count op_count sub {pop} repeat            % Clean up stacks
countdictstack dict_count sub {end} repeat
b4_Inc_state restore
} bd
%%EndResource
%%EndSetup
%%Page: 1 1
%%PageBoundingBox: 0 0 595 842
%%BeginPageSetup
<<
/PageSize [595 842]
/ImagingBBox null
>> setpagedevice
[1 0 0 -1 0 842] CT
%%EndPageSetup
GS
[0.5 0 0 0.5 -336.86221 75.05513] CT
N
0 0 M
2538 0 L
2538 1384 L
0 1384 L
0 0 L
cp
clip
1 GC
N
0 0 2538 1384 re
f
GR
GS
[0.47995 0 0 0.47989 -336.86221 102.8887] CT
[1 0 0 1 0 0] CT
N
0 -58 M
2644 -58 L
2644 1384 L
0 1384 L
0 -58 L
cp
clip
GS
0 0 translate
2538 1384 scale
%AXGBeginBitmap: java.awt.image.BufferedImage
{{
/RawData currentfile /ASCII85Decode filter def
/Data RawData /FlateDecode filter def
/DeviceGray setcolorspace
<<
  /ImageType 1
  /Decode [0 1]
  /DataSource Data
  /Height 1384
  /ImageMatrix [2538 0 0 1384 0 0]
  /Width 2538
  /BitsPerComponent 8
>> image
} stopped {handleerror} if
  RawData flushfile
} exec
Gb"0;!=]#/!5bE.WG`8*TE"rlzzzzzzzzzzzzzzzzzzzzzzzzzzzzzzzzzzzzzzzzzzzzzzzzzzzzzzz
zzzzzzzzzzzzzzzzzzzzzzzzzzzzzzzzzzzzzzzzzzzzzzzzzzzzzzzzzzzzzzzzzzzzzzzzzzzzzzzz
zzzzzzzzzzzzzzzzzzzzzzzzzzzzzzzzzzzzzzzzzzzzzzzzzzzzzzzzzzzzzzzzzzzzzzzzzzzzzzzz
zzzzzzzzzzzzzzzzzzzzzzzzzzzzzzzzzzzzzzzzzzzzzzzzzzzzzzzzzzzzzzzzzzzzzzzzzzzzzzzz
zzzzzzzzzzzzzzzzzzzzzzzzzzzzzzzzzzzzzzzzzzzzzzzzzzzzzzzzzzzzzzzzzzzzzzzzzzzzzzzz
zzzzzzzzzzzzzzzzzzzzzzzzzzzzzzzzzzzzzzzzzzzzzzzzzzzzzzzzzzzzzzzzzzzzzzzzzzzzzzzz
zzzzzzzzzzzzzzzzzzzzzzzzzzzzzzzzzzzzzzzzzzzzzzzzzzzzzzzzzzzzzzzzzzzzzzzzzzzzzzzz
zzzzzzzzzzzzzzzzzzzzzzzzzzzzzzzzzzzzzzzzzzzzzzzzzzzzzzzzzzzzzzzzzzzzzzzzzzzzzzzz
zzzzzzzzzzzzzzzzzzzzzzzzzzzzzzzzzzzzzzzzzzzzzzzzzzzzzzzzzzzzzzzzzzzzzzzzzzzzzzzz
zzzzzzzzzzzzzzzzzzzzzzzzzzzzzzzzzzzzzzzzzzzzzzzzzzzzzzzzzzzzzzzzzzzzzzzzzzzzzzzz
zzzzzzzzzzzzzzzzzzzzzzzzzzzzzzzzzzzzzzzzzzzzzzzzzzzzzzzzzzzzzzzzzzzzzzzzzzzi6MD*
I[B@~>

%AXGEndBitmap
GR
GR
GS
[0.47995 0 0 0.47989 881.26267 102.8887] CT
[1 0 0 1 0 0] CT
N
-2538 -58 M
106 -58 L
106 1384 L
-2538 1384 L
-2538 -58 L
cp
clip
GS
0 0 translate
106 1384 scale
%AXGBeginBitmap: java.awt.image.BufferedImage
{{
/RawData currentfile /ASCII85Decode filter def
/Data RawData /FlateDecode filter def
/DeviceGray setcolorspace
<<
  /ImageType 1
  /Decode [0 1]
  /DataSource Data
  /Height 1384
  /ImageMatrix [106 0 0 1384 0 0]
  /Width 106
  /BitsPerComponent 8
>> image
} stopped {handleerror} if
  RawData flushfile
} exec
Gb"0;0`_7S!5bE.WFlYNTE"rlzzzzzzzzzzzzzzzzzzzzzzzzzzzzzzzzzz!!!#5%A4g8<r~>

%AXGEndBitmap
GR
GR
GS
[0.47995 0 0 0.47989 -336.86221 75.05513] CT
[1 0 0 1 0 0] CT
N
0 0 M
2644 0 L
2644 1442 L
0 1442 L
0 0 L
cp
clip
GS
0 0 translate
2538 58 scale
%AXGBeginBitmap: java.awt.image.BufferedImage
{{
/RawData currentfile /ASCII85Decode filter def
/Data RawData /FlateDecode filter def
/DeviceGray setcolorspace
<<
  /ImageType 1
  /Decode [0 1]
  /DataSource Data
  /Height 58
  /ImageMatrix [2538 0 0 58 0 0]
  /Width 2538
  /BitsPerComponent 8
>> image
} stopped {handleerror} if
  RawData flushfile
} exec
Gb"0;0`_7S!5bE.WFlYNTE"rlzzzzzzzzzzzzzzzzzzzzzzzzzzzzzzzzzz!!!#Wb5c<Wk(*~>

%AXGEndBitmap
GR
GR
GS
[0.47995 0 0 0.47989 881.26267 75.05513] CT
[1 0 0 1 0 0] CT
N
-2538 0 M
106 0 L
106 1442 L
-2538 1442 L
-2538 0 L
cp
clip
GS
0 0 translate
106 58 scale
%AXGBeginBitmap: java.awt.image.BufferedImage
{{
/RawData currentfile /ASCII85Decode filter def
/Data RawData /FlateDecode filter def
/DeviceGray setcolorspace
<<
  /ImageType 1
  /Decode [0 1]
  /DataSource Data
  /Height 58
  /ImageMatrix [106 0 0 58 0 0]
  /Width 106
  /BitsPerComponent 8
>> image
} stopped {handleerror} if
  RawData flushfile
} exec
Gb"0;!=]#/!5bE.WG`:P'EA+5!!)M%N*bmP~>

%AXGEndBitmap
GR
GR
GS
[0.5 0 0 0.5 -336.86221 75.05513] CT
N
0 0 M
0 1384 L
2538 1384 L
2538 0 L
cp
clip
1 GC
N
0 0 2538 1384 re
f
GR
GS
[0.5 0 0 0.5 -338.36221 73.55513] CT
N
3 3 M
3 1384 L
2536 1384 L
2536 3 L
cp
clip
1 GC
N
0 0 2536 1384 re
f
GR
GS
[0.5 0 0 0.5 -338.36221 73.55513] CT
N
3 3 M
3 1384 L
2536 1384 L
2536 3 L
cp
clip
0.941 GC
N
0 0 2537 1384 re
f
GR
GS
[0.5 0 0 0.5 -338.36221 73.55513] CT
N
3 3 M
3 1384 L
2536 1384 L
2536 3 L
cp
clip
1 GC
N
0 0 2537 1384 re
f
GR
GS
[0.5 0 0 0.5 -338.36221 73.55513] CT
N
3 3 M
3 1384 L
2536 1384 L
2536 3 L
cp
clip
1 GC
N
0 0 2537 1384 re
f
GR
GS
[0.47995 0 0 0.47989 -336.92235 101.3887] CT
[1 0 0 1 0 0] CT
N
0.125 -54.874 M
0.125 1384 L
2638.916 1384 L
2638.916 -54.874 L
cp
clip
GS
0 0 translate
2537 1384 scale
%AXGBeginBitmap: java.awt.image.BufferedImage
{{
/RawData currentfile /ASCII85Decode filter def
/Data RawData /FlateDecode filter def
/DeviceGray setcolorspace
<<
  /ImageType 1
  /Decode [0 1]
  /DataSource Data
  /Height 1384
  /ImageMatrix [2537 0 0 1384 0 0]
  /Width 2537
  /BitsPerComponent 8
>> image
} stopped {handleerror} if
  RawData flushfile
} exec
Gb"-V:PbeOT&09n7Pr@4RUHsRF>/P[&'"78=YT/%jh]<"*Y?2TAIqQW`*@[D`j`d#R\A,?0[1SZ&.#QZ
)W=n1)I^QN,n.t)RKg*c@;$F?U=mF.KO>CE-q"Z:&WrKDs%5nKU?YtQld+%%esfMSO\^G_2m]*7;H5<8
h^"+uo[X-9?<nZa!<NB0&0O5GWdpdE(W\so!!*-(#S<@Q@-H,Endlp/J,fTO"JuMCH?Fd$":,P]5_&ic
W<.f\>p'XY!X&c?+@'>7J>$$\a?tIX!<NB0&==qTkg]k-&0O5g!!*-(V@"/dFb)XX#S8+DJ,k/"!et#e
+:eJS":,P]5[^UBTiW&O6\#.;!X&c?QmuM-eHPLT+@(GW!<ND$$5e)3JNO&@&0O5g!.h*NL0e..%fl_7
#S8+D@&eaN<u8qFJ,fTO":,R+.U_Jj"nE3I5_&h8!X,A-(j^=U49Pp$+@(GWJZ/^*?<nZa!<NB0&0O5G
WdpdE(W\so!!*-(#S<@Q@-H,Endlp/J,fTO"JuMCH?Fd$":,P]5_&icW<.f\>p'XY!X&c?+@'>7J>$$\
a?tIX!<NB0&==qTkg]k-&0O5g!!*-(V@"/dFb)XX#S8+DJ,k/"!et#e+:eJS":,P]5[^UBTiW&O6\#.;
!X&c?QmuM-eHPLT+@(GW!<ND$$5e)3JNO&@&0O5g!.h*NL0e..%fl_7#S8+D@&eaN<u8qFJ,fTO":,R+
.U_Jj"nE3I5_&h8!X,A-(j^=U49Pp$+@(GWJZ/^*?<nZa!<NB0&0O5GWdpdE(W\so!!*-(#S<@Q@-H,E
ndlp/J,fTO"JuMCH?Fd$":,P]5_&icW<.f\>p'XY!X&c?+@'>7J>$$\a?tIX!<NB0&==qTkg]k-&0O5g
!!*-(V@"/dFb)XX#S8+DJ,k/"!et#e+:eJS":,P]5[^UBTiW&O6\#.;!X&c?QmuM-eHPLT+@(GW!<ND$
$5e)3JNO&@&0O5g!.h*NL0e..%fl_7#S8+D@&eaN<u8qFJ,fTO":,R+.U_Jj"nE3I5_&h8!X,A-(j^=U
49Pp$+@(GWJZ/^*?<nZa!<NB0&0O5GWdpdE(W\so!!*-(#S<@Q@-H,Endlp/J,fTO"JuMCH?Fd$":,P]
5_&icW<.f\>p'XY!X&c?+@'>7J>$$\a?tIX!<NB0&==qTkg]k-&0O5g!!*-(V@"/dFb)XX#S8+DJ,k/"
!et#e+:eJS":,P]5[^UBTiW&O6\#.;!X&c?QmuM-eHPLT+@(GW!<ND$$5e)3JNO&@&0O5g!.h*NL0e..
%fl_7#S8+D@&eaN<u8qFJ,fTO":,R+.U_Jj"nE3I5_&h8!X,A-(j^=U49Pp$+@(GWJZ/^*?<nZa!<NB0
&0O5GWdpdE(W\so!!*-(#S>WQJ]EiNIWP#?UJI2bNj^kaH?Fd$":,P]5_&icI1uDRXm[eVs7k";d6"N_
(-hY3H2VE'PG,I(-[,5-5_&h8!X&eqS%tYFs$&aDh7rl?O-^q>hLG*cfA8X)l0;r/PG,I0-[,5-5_&h8
!X&eqRD@kO]Q=)CPJpl]J+2LiK3p0Y]A+HED_gtYmDM2D&0O5g!!*-(p.XDNs7EqpQX;BEr/8Ooq;]H+
bH%E*9hRilhbNNZ#QXu0#S8+D?nV]_C@O5)/Uk)gqVKuMX/#&V91*V^:[ChDJ,fTO":,Rk7tL^:lC5s-
(E]ah?iA+?BRA3R(/N2%^E7a%/s(hg!<NB0&0S2A!`qJPDnc7lT7?gdH\'*+V9D+Upt^Z)!<NB0&0S3,
!e:1)f0<Up+'nh/mFBT/^NFlTqfcLn*<H?L&0O5g^toCq`T#3E5<N9MI/WWLmEtX)V4kAJ-[+Yr5_&h8
!X&eqS%uXoG;][jHt.HlGH"gfD/V3%p?ole4p2-&+@(GWJNX\Ah08n`?a'%0b7>@QHh-LS<n$L%BR>r:
[r3Yf3J7A5!X&c?+L#J[5JQugZYqL`5CI+JG^]PZSR!7QD_gtYm)2)C&0O5g!!*-(V@"/dFb)XX#S8+D
J,k/"!et#e+:eJS":,P]5[^UBTiW&O6\#.;!X&c?QmuM-eHPLT+@(GW!<ND$$5e)3JNO&@&0O5g!.h*N
L0e..%fl_7#S8+D@&eaN<u8qFJ,fTO":,R+.U_Jj"nE3I5_&h8!X,A-(j^=U49Pp$+@(GWJZ/^*?<nZa
!<NB0&0O5GWdpdE(W\so!!*-(#S<@Q@-H,Endlp/J,fTO"JuMCH?Fd$":,P]5_&icW<.f\>p'XY!X&c?
+@'>7J>$$\a?tIX!<NB0&==qTkg]k-&0O5g!!*-(V@"/dFb)XX#S8+DJ,k/"!et#e+:eJS":,P]5[^UB
TiW&O6\#.;!X&c?QmuM-eHPLT+@(GW!<ND$$5e)3JNO&@&0O5g!.h*NL0e..%fl_7#S8+D@&eaN<u8qF
J,fTO":,R+.U_Jj"nE3I5_&h8!X,A-(j^=U49Pp$+@(GWJZ/^*?<nZa!<NB0&0O5GWdpdE(W\so!!*-(
#S<@Q@-H,Endlp/J,fTO"JuMCH?Fd$":,P]5_&icW<.f\>p'XY!X&c?+@'>7J>$$\a?tIX!<NB0&==qT
kg]k-&0O5g!!*-(V@"/dFb)XX#S8+DJ,k/"!et#e+:eJS":,P]5[^UBTiW&O6\#.;!X&c?QmuM-eHPLT
+@(GW!<ND$$5e)3JNO&@&0O5g!.h*NL0e..%fl_7#S8+D@&eaN<u8qFJ,fTO":,R+.U_Jj"nE3I5_&h8
!X,A-(j^=U49Pp$+@(GWJZ/^*?<nZa!<NB0&0O5GWdpdE(W\so!!*-(#S<@Q@-H,Endlp/J,fTO"JuMC
H?Fd$":,P]5_&icW<.f\>p'XY!X&c?+@'>7J>$$\a?tIX!<NB0&==qTkg]k-&0O5g!!*-(V@"/dFb)XX
#S8+DJ,k/"!et#e+:eJS":,P]5[^UBTiW&O6\#.;!X&c?QmuM-eHPLT+@(GW!<ND$$5e)3JNO&@&0O5g
!.h*NL0e..%fl_7#S8+D@&eaN<u8qFJ,fTO":,R+.U_Jj"nE3I5_&h8!X,A-(j^=U49Pp$+@(GWJZ/^*
?<nZa!<NB0&0O5GWdpdE(W\so!!*-(#S<@Q@-H,Endlp/J,fTO"JuMCH?Fd$":,P]5_&icW<.f\>p'XY
!X&c?+@'>7J>$$\a?tIX!<NB0&==qTkg]k-&0O5g!!*-(V@"/dFb)XX#S8+DJ,k/"!et#e+:eJS":,P]
5[^UBTiW&O6\#.;!X&c?QmuM-eHPLT+@(GW!<ND$$5e)3JNO&@&0O5g!.h*NL0e..%fl_7#S8+D@&eaN
<u8qFJ,fTO":,R+.U_Jj"nE3I5_&h8!X,A-(j^=U49Pp$+@(GWJZ/^*?<nZa!<NB0&0O5GWdpdE(W\so
!!*-(#S<@Q@-H,Endlp/J,fTO"JuMCH?Fd$":,P]5_&icW<.f\>p'XY!X&c?+@'>7J>$$\a?tIX!<NB0
&==qTkg]k-&0O5g!!*-(V@"/dFb)XX#S8+DJ,k/"!et#e+:eJS":,P]5[^UBTiW&O6\#.;!X&c?QmuM-
eHPLT+@(GW!<ND$$5e)3JNO&@&0O5g!.h*NL0e..%fl_7#S8+D@&eaN<u8qFJ,fTO":,R+.U_Jj"nE3I
5_&h8!X,A-(j^=U49Pp$+@(GWJZ/^*?<nZa!<NB0&0O5GWdpdE(W\so!!*-(#S<@Q@-H,Endlp/J,fTO
"JuMCH?Fd$":,P]5_&icW<.f\>p'XY!X&c?+@'>7J>$$\a?tIX!<NB0&==qTkg]k-&0O5g!!*-(V@"/d
Fb)XX#S8+DJ,k/"!et#e+:eJS":,P]5[^UBTiW&O6\#.;!X&c?QmuM-eHPLT+@(GW!<ND$$5e)3JNO&@
&0O5g!.h*NL0e..%fl_7#S8+D@&eaN<u8qFJ,fTO":,R+.U_Jj"nE3I5_&h8!X,A-(j^=U49Pp$+@(GW
JZ/^*?<nZa!<NB0&0O5GWdpdE(W\so!!*-(#S<@Q@-H,Endlp/J,fTO"JuMCH?Fd$":,P]5_&icW<.f\
>p'XY!X&c?+@'>7J>$$\a?tIX!<NB0&==qTkg]k-&0O5g!!*-(V@"/dFb)XX#S8+DJ,k/"!et#e+:eJS
":,P]5[^UBTiW&O6\#.;!X&c?QmuM-eHPLT+@(GW!<ND$$5e)3JNO&@&0O5g!.h*NL0e..%fl_7#S8+D
@&eaN<u8qFJ,fTO":,R+.U_Jj"nE3I5_&h8!X,A-(j^=U49Pp$+@(GWJZ/^*?<nZa!<NB0&0O5GWdpdE
(W\so!!*-(#S<@Q@-H,Endlp/J,fTO"JuMCH?Fd$":,P]5_&icW<.f\>p'XY!X&c?+@'>7J>$$\a?tIX
!<NB0&==qTkg]k-&0O5g!!*-(V@"/dFb)XX#S8+DJ,k/"!et#e+:eJS":,P]5[^UBTiW&O6\#.;!X&c?
QmuM-eHPLT+@(GW!<ND$$5e)3JNO&@&0O5g!.h*NL0e..%fl_7#S8+D@&eaN<u8qFJ,fTO":,R+.U_Jj
"nE3I5_&h8!X,A-(j^=U49Pp$+@(GWJZ/^*?<nZa!<NB0&0O5GWdpdE(W\so!!*-(#S<@Q@-H,Endlp/
J,fTO"JuMCH?Fd$":,P]5_&icW<.f\>p'XY!X&c?+@'>7J>$$\a?tIX!<NB0&==qTkg]k-&0O5g!!*-(
V@"/dFb)XX#S8+DJ,k/"!et#e+:eJS":,P]5[^UBTiW&O6\#.;!X&c?QmuM-eHPLT+@(GW!<ND$$5e)3
JNO&@&0O5g!.h*NL0e..%fl_7#S8+D@&eaN<u8qFJ,fTO":,R+.U_Jj"nE3I5_&h8!X,A-(j^=U49Pp$
+@(GWJZ/^*?<nZa!<NB0&0O5GWdpdE(W\so!!*-(#S<@Q@-H,Endlp/J,fTO"JuMCH?Fd$":,P]5_&ic
W<.f\>p'XY!X&c?+@'>7J>$$\a?tIX!<NB0&==qTkg]k-&0O5g!!*-(V@"/dFb)XX#S8+DJ,k/"!et#e
+:eJS":,P]5[^UBTiW&O6\#.;!X&c?QmuM-eHPLT+@(GW!<ND$$5e)3JNO&@&0O5g!.h*NL0e..%fl_7
#S8+D@&eaN<u8qFJ,fTO":,R+.U_Jj"nE3I5_&h8!X,A-(j^=U49Pp$+@(GWJZ/^*?<nZa!<NB0&0O5G
WdpdE(W\so!!*-(#S<@Q@-H,Endlp/J,fTO"JuMCH?Fd$":,P]5_&icW<.f\>p'XY!X&c?+@'>7J>$$\
a?tIX!<NB0&==qTkg]k-&0O5g!!*-(V@"/dFb)XX#S8+DJ,k/"!et#e+:eJS":,P]5[^UBTiW&O6\#.;
!X&c?QmuM-eHPLT+@(GW!<NDt;;f3=ZMrh+8"X&AE-8P$aj@'rj<6d=!!*-(#je8#a5?pYlA'Ri=Y,$o
fo;co9nqLGT%G'=!!*-(#S8,_Ifb,og0ur35$5Jtj>X9UH2VE'PG,I@-[+)b5_&h8!X&eqS&"(anD/T.
*dU'GnbJ)M/:Ms5BR>r:[s'3CpE;eP!!*-(#je%rVgnI`5@"`30,CVNNu.8&O1$u!%DBG:Z+CMI!X&c?
+@'>l"<RT\E]s%Y>5W..lM'/l*c5gVcf1pLn+S&FeHPLT+@(GW!<NDt8)S.JXbYbgMiUoZYPr'Z[(U2<
)83^fn@K23!X&c?+@'<F"Ur)"A.MK&N^J<s!<NB0&D0@$p!A&-p%u*t7uqQcens%-jiAL7fH#_I!<NB0
&0S34!pcQSGk(CelK*BIU[:cK6Z4&Bm#FG`!!*-(#S>WUJb@AorpYp/`S[M4FgSj(d+cSS]AjGF5_&h8
!X/3ni7!V!0_o?WIf7t>f8m@!)1)1)@Wrdn":,P]5_-Wk$>bIRnu&ZB(9`42j(Ne'Tsoe)G/kakJ,fTO
":.[90_FW3GmFs(5_&h8!`K72]t-HM!X&c?+@(Im;uo@i/s(hg!<NB0&0NZ,^sK+ij<6d=!!*-(#YYse
o]cL'#S8+DJ,fTO;[!TC\j.;<":,P]5_-XL!CO%COG<f:!X&c?+>?g2d&RQ8+[CPX!<NB09GK8Rl2l5:
&0O5g!!*.""Ur)U5TTt0#S8+DJA>+b6a&,(LB%>V":,P]0NGp8Wsdu35_&h8!X&d&'eo:F!dP%_+@(GW
!<Q1'%)'5;*WcHM&0O5g^f1>%Y:bol!!*-(#S8+4<PZt^$fiHrJ,fTO":.[90_FW3GmFs(5_&h8!`K72
]t-HM!X&c?+@(Im;uo@i/s(hg!<NB0&0NZ,^sK+ij<6d=!!*-(#YYseo]cL'#S8+DJ,fTO;[!TC\j.;<
":,P]5_-XL!CO%COG<f:!X&c?+>?g2d&RQ8+[CPX!<NB09GK8Rl2l5:&0O5g!!*.""Ur)U5TTt0#S8+D
JA>+b6a&,(LB%>V":,P]0NGp8Wsdu35_&h8!X&d&'eo:F!dP%_+@(GW!<Q1'%)'5;*WcHM&0O5g^f1>%
Y:bol!!*-(#S8+4<PZt^$fiHrJ,fTO":.[90_FW3GmFs(5_&h8!`K72]t-HM!X&c?+@(Im;uo@i/s(hg
!<NB0&0NZ,^sK+ij<6d=!!*-(#YYseo]cL'#S8+DJ,fTO;[!TC\j.;<":,P]5_-XL!CO%COG<f:!X&c?
+>?g2d&RQ8+[CPX!<NB09GK8Rl2l5:&0O5g!!*.""Ur)U5TTt0#S8+DJA>+b6a&,(LB%>V":,P]0NGp8
Wsdu35_&h8!X&d&'eo:F!dP%_+@(GW!<Q1'%)'5;*WcHM&0O5g^f1>%Y:bol!!*-(#S8+4<PZt^$fiHr
J,fTO":.[90_FW3GmFs(5_&h8!`K72]t-HM!X&c?+@(Im;uo@i/s(hg!<NB0&0NZ,^sK+ij<6d=!!*-(
#YYseo]cL'#S8+DJ,fTO;[!TC\j.;<":,P]5_-XL!CO%COG<f:!X&c?+>?g2d&RQ8+[CPX!<NB09GK8R
l2l5:&0O5g!!*.""Ur)U5TTt0#S8+DJA>+b6a&,(LB%>V":,P]0NGp8Wsdu35_&h8!X&d&'eo:F!dP%_
+@(GW!<Q1'%)'5;*WcHM&0O5g^f1>%Y:bol!!*-(#S8+4<PZt^$fiHrJ,fTO":.[90_FW3GmFs(5_&h8
!`K72]t-HM!X&c?+@(Im;uo@i/s(hg!<NB0&0NZ,^sK+ij<6d=!!*-(#YYseo]cL'#S8+DJ,fTO;[!TC
\j.;<":,P]5_-XL!CO%COG<f:!X&c?+>?g2d&RQ8+[CPX!<NB09GK8Rl2l5:&0O5g!!*.""Ur)U5TTt0
#S8+DJA>+b6a&,(LB%>V":,P]0NGp8Wsdu35_&h8!X&d&'eo:F!dP%_+@(GW!<Q1'%)'5;*WcHM&0O5g
^f1>%Y:bol!!*-(#S8+4<PZt^$fiHrJ,fTO":.[90_FW3GmFs(5_&h8!`K72]t-HM!X&c?+@(Im;uo@i
/s(hg!<NB0&0NZ,^sK+ij<6d=!!*-(#YYseo]cL'#S8+DJ,fTO;[!TC\j.;<":,P]5_-XL!CO%COG<f:
!X&c?+>?g2d&RQ8+[CPX!<NB09GK8Rl2l5:&0O5g!!*.""Ur)U5TTt0#S8+DJA>+b6a&,(LB%>V":,P]
0NGp8Wsdu35_&h8!X&d&'eo:F!dP%_+@(GW!<Q1'%)'5;*WcHM&0O5g^f1>%Y:bol!!*-(#S8+4<PZt^
$fiHrJ,fTO":.[90_FW3GmFs(5_&h8!`K72]t-HM!X&c?+@(Im;uo@i/s(hg!<NB0&0NZ,^sK+ij<6d=
!!*-(#YYseo]cL'#S8+DJ,fTO;[!TC\j.;<":,P]5_-XL!CO%COG<f:!X&c?+>?g2d&RQ8+[CPX!<NB0
9GK8Rl2l5:&0O5g!!*.""Ur)U5TTt0#S8+DJA>+b6a&,(LB%>V":,P]0NGp8Wsdu35_&h8!X&d&'eo:F
!dP%_+@(GW!<Q1'%)'5;*WcHM&0O5g^f1>%Y:bol!!*-(#S8+4<PZt^$fiHrJ,fTO":.[90_FW3GmFs(
5_&h8!`K72]t-HM!X&c?+@(Im<.P8_^!fuIB4pO_k?d@@BBk>%GR+j'5_&h8!`K9:Icqe(<]N/>hs,uL
UZ7QEk?mPoAa5,#GR+j'5_&h8!`K9:IcqdlY+E`s3]T2]s5E&&I.&'q5Q>%C/5o@2_aAqS!<NB0&==s:
J>%1/oC]GrPJuPFjS@;NnX4]4+!(Id#S8+DJA>-8Da*eo3B=b@f"K;W'Dq81+@(GW!<T_5:(J*f8WPK&
YCU=*HHWYd9AoS]kA>fE4g>M.!<NB0&0Ppji,!CXq"sd:E_O.NSoNtbkP/H'Z[,PGm))2@!!*-(#i$JI
-c^tuN'.!a>FqB**h;T(9Tc;%p>I/[J,fTO":VuCf>+j4HKQ*]dD=e`%a,QSH=@s;!X&c?+@*`hRsGNk
X.d#u;]040.oU!DM1'US&0O5g!!,H*l8A&_LYd&s\i;\*;3rP,:[GtdJ,fTO":,ij;m1aj4nP&`UP$J5
STIFYou'$V":,P]5_+BY2t\*A_9cDX*\R0\T1,5q@NQWm":,P]5eta9H4B4MkUk+U(.Y8a-rX[AM1'US
&0O5g!!,H*l8>f0Tso>GDdWMFgo2[pi?:I:!!*-(%)&Xl^lF0+o'Bm_s0\)j-hcLB5_&h8!X&qFWRnqg
L>M`+EO\"-G$U8)4g>M.!<NB0&0PBE9t^aS2tU/N.,#aAn_:#jp>I/[J,fTO":VuCf>'"ohWg0Z*Zq#'
M`*kuT%JgR!!*-(#S8]^VHs?d*I>o8e&C>)@'BP6jf'X$i?:I:!!*-(%)&Xl^i"qa.OR`5[Ig>ffS>4^
!<NB0&2<aR?3@e]HHXjRQ*FG]SioH1+B))&_aAqS!<NB0(j],aJ`ef\QD_bnMoC/Cac*2Hp>I/[J,fTO
":VuCf>-tqHKR:K3BYrL5FF8!`'-9d#S8+DJ:O=Pobr'm6gs#1AfMh^4lb@*:o9i:LPGj1!X&c?0_D5K
"4(uN/_C#/`kb=If-jEXYn%?G!X&c?+COD-]`t(scs,W,?ubZKs2g5!-hcLB5_&h8!X&qFWRnrW+*u+o
eXt&F3rPA*o"6aN`'-9d#S8+DJ:O=Pobr&U6Z;WZ\0m%:LG.h__OZ!^+!(Id#S8+D^sJQs%D7dr[p3d`
_o'I0_:^F^CT!SH@NQWm":,P]5eta9H4@NcTsr1ddF$tKoQ4.F\!p&SYn%?G!X&c?+COD-]`qg(cs-N!
gr7+Oak?)'nQTYkM1'US&0O5g!!,H*l8A'?LYd&sH@!5+*$4M>0u$_cT%JgR!!*-(#S8]^VHs?XHK^o,
4_JEn^N&Adc)8rr_(t]%5!/rR&@bNooL5*;iu0%JkY8_p?Mr1)AG%<+NfK-[:JQq2NXcO/(5pEH8&o8g
j4uj];bubt6\)scJ[9-;l5O"B34ns[[/,rmrgL4n3jlQnaiWd+G^nVVp9Wg'n+E^9(1mI@97@>_!7-uu
TXf#Bs(:M@roE'B^SnG.6gk&JiXa1)E=G$c<'tSLD;VH3hs'CqlA"o"%M')2O.YMWTBSq`I64]HX$=jL
ro+pao_:P(LI\BeN_`EBof:EJ'A.^S-?+9WNVMf&FISKSCH5OiS`?cCI&:B=a#q#&c08Ql\iK.j?[_\/
UVk@2*aRRm^3`!.26_B;lh@]2bfpB=FZ!KED/Quhg9eSI=oW_8Frg/G'(>r%?M<XSik=.HM6k\(8&*^=
?u9o@)m9FrDh#!?_h5k%UXRI(WQj%om3<T8Q$h,1qu3bTe_4I1M7\(ZJTCeH00f:@NQ[CC>4-ap)oPJD
K8\3,s1:6prMMH@O(8&Q*Nnl(02Cq\i6-=nn`.a1[<HZO>!L`2e;MN:nCCAU?$l86eh%^4I/6:EqIO)V
h6/nHhXg#rlZh1Or*XlrSLq;ej2L,)^%)@![>Str2ZN3"g"@D4laL-2kN:a+^OEKe<4I=j[nbf5jZSX,
Y*"Wk#E+6%,@"IZQOe(V]^\.rr<;.oQc7).j#kS1e)]`^ii;sPMdM\"O*Z-K4GVeHe[`8WMbf;VkK<&N
Qaj5FR+8mqhsT32kf2]Elb>,[IVCsV`d.J0?[^8Dl<j/SQS7d^lh'9'A6aQ02m/.@j3p*#q"_8@@srKR
43<66-?f^ilL/.aT=)S##<p/LafVba-XXXRcen3=nTt5MF7l*>al^5/CBmqu+Il\c6bg2Jf&-=oS?Cc;
p92?RS"I@mXi:+Pl2&E[)fKb;E`)enqSO;DS/bhILDq>Rk.T[M7I0NM5.LFRdFCBUY3pW5S+r2*GB^:%
qtg>Z%s7@%_8VblK<#6kQ-3N4DVh\pd+5tm>l=6Zp%:h'nK+jjlep^dE=TGG@BmN=r8'p_PKUg%J'#EL
^GjI<jb%GW5IeUQY^$a\D9fo/h0H(@+5.1^B?g.T%W4De_*(0Hk52igI-oMNO+)1niN:Drk'FZ5Qj6iQ
boMhJ?';Zi?JOMj7t,E%qqr@_N1(!\:;bU>EmNLr4D+oN53"7[i6=Vos!0hD`)`5hk3_X5qQ]jrE;gNO
7p+Ysr>a_WoBBfa)1G_"qu1J?S+l#.kQcE=I%Hq$*F7KGFRqk)/68B)RqEsAXr8?gI#8tOWGFa[s6'[F
=&_5jrKA&LnE0]+\BJhrhA;CHrh!N3fCSJ)\$'*7=P)<ulT+\m#Icprj-/N,^;Idh0,(f9lcoT=k2Nu-
>hkf!ioorSiB6F!q7V]Y]"5D3(PgW!k2qqKE:<J5X``gfY.le8gqCn[Eq<QWhtUdYin))cb6QpRNZT:u
\oK\Ff$u/0_=`"kg$13Pp=5H'dlo>n:N#!-pLC^7l0COk#NUI-kT]QDHYQU]SAt@XnR)$&B5<p9V^bGB
,Q2"ioebY$%8SXknN1+H(Z1oNeF^a>oQSU7iQW@t^?;p$*o+>k%PFd=GaRfh*XCG)4i6L]NV3$mb?NkJ
S8H"?gUr/sqqQWU@f+<eHTPCo+o!Fcn$=[>+hDuWnEB@\qo\H"kEQNqIp[J@bI6X.47T@YcINMOrEbuf
ZFT)lhHMqRQlg/%`O4k1mbYJAH!,RelI?PU8([1>\bFM5L\WUk4P#K&mHE95kpP6SiO@^ghtLFJ`E9YH
amEToCj^@%[Hm;Ul^st9gJg5h?<>mfI/)4[o?ZlEE:&fN56!h?p.;tsFSf%^[HDAOho".0qp1HF:Kj8o
I+4Ll?@Dj&r=eb];tB5)b<)gJDu2-EfnIV/Z[@%XX@o'g4[F=7Xo@k>SdaDeT6id%^]*QDjTDTUGZjiJ
s%9N+(s[$4jlL^RRnqh_k@[OB0:s31f09%hH_,&W]ZZgM>pl,fe+4@L?70CO0*g+Dc>B-o\bh[/H1)CB
g8DgPnJ1H5oeX,4s.K4)qona/fBqt%\:3W8hr3RMob2Q(B@&7q75rQDD<p&hqDL9;^\ChgrO^PEchj9'
hL$+.jt/OklA.Nor21?tpXN4BB@fo8j[7jOj*Mm,o\.cMB4(2Z@'-ZDNimdrfmJUBms)I5DZ><o288V)
ror^iLo\k74'rN-^LZ-@p@>cnV=!iFgO!kbe[93X92;WRHWQhVlV$9`kNhEVf8]Vc!OpAc>l4):EE,/%
o"AgG;D19*UMCtM7J4iblY(9>i8Q[?::D>?jTiHpSWD$.e+*,6^Nf<po;hW5e`f-.PKS=/]R1cfQZ_Mo
I\g:VN[J3((8iO<_poEA\*nS;+9(*01bSg/S+D'CgcWo+FS23?jYLi0K?]S[kAS*1ro`qMP@CHUmk=*p
^3i]Figs6OH-c39Xih]&Wh3RHR'Xt?/j>*7gj+eGX5#>rH$4T*rjNuk`@En8Yfkq84hL6X?J]esnl[%&
=mu1r1>t0qY:dK\=h]:sT(;SVY>#T'VRc[t^3O>jS(rA^)1&spZ>fW9TubngrbYXOT0F^tI^-JLQf8oC
/)U.q+n5DMq<QW%jqj9ZY)&EIi9JqEX3]I;Gjhj9U:C-@!nlc82pKN-oN!tV4g0'FQ`P7W[B=/t=9$[-
Zg/k5o_rcA?fk#Y`In3l!X&c?+>?gRjW8a2=oId+dH.^E=3kZbI\5`c.t/GsiL,"$+!(Id#S8+DJA>-8
Q[\/#So_UB>Hka:a#0`cfS>4^!<NB0&0NZ,i8l&,l^V8X%lee1*s,5$Yn%?G!X&c?+@'>7^n(tJkEi.q
p>I/[J,fTO":.[90_FW3GmFs(5_&h8!`K72]t-HM!X&c?+@(Im;uo@i/s(hg!<NB0&0NZ,^sK+ij<6d=
!!*-(#YYseo]cL'#S8+DJ,fTO;[!TC\j.;<":,P]5_-XL!CO%COG<f:!X&c?+>?g2d&RQ8+[CPX!<NB0
9GK8Rl2l5:&0O5g!!*.""Ur)U5TTt0#S8+DJA>+b6a&,(LB%>V":,P]0NGp8Wsdu35_&h8!X&d&'eo:F
!dP%_+@(GW!<Q1'%)'5;*WcHM&0O5g^f1>%Y:bol!!*-(#S8+4<PZt^$fiHrJ,fTO":.[90_FW3GmFs(
5_&h8!`K72]t-HM!X&c?+@(Im;uo@i/s(hg!<NB0&0NZ,^sK+ij<6d=!!*-(#YYseo]cL'#S8+DJ,fTO
ZNS!ioZ>(7TiW&O6\#.;!X&c?(a\[s.uVB-5$K*IH?Fd$":,P]5_&ic8HKtbhLG*cfA9aS)gZXX49Pp$
+@(GWJOoo-q!n0<?S$Z<3]?Wq!dP%_+@(GW!<RlV^0%I#R)b,/=0EHeFb)XX#S8+DJ,k-d!Zs"C[JJj/
Dm*J"NfUn$$U\iU#S8+DJ,fTOK*4ACI'ib/eXrpL/tSLr]$,Mro2]->%fl_7#S8+D@"/<niQuq3MfLI+
BYcoC#S8+DJ,fTOK*37OpoW;Z9:nKtp)-5J!!*-(#S7gun9FKpoum#`AE_PIndlp/J,fTO"==HQn;ZNg
q!1q7B@;Wb[LaQHJ,fTO"==G&YkZn8?bc<SqUj/q$fiHrJ,fTO":0r!pus;e`Tn'5-d[T\e;8UN&0O5g
!!*-(V@"/dFb)XX#S8+DJ,k/"!et#e+:eJS":,P]5[^UBTiW&O6\#.;!X&c?QmuM-eHPLT+@(GW!<ND$
$5e)3JNO&@&0O5g!.h*NL0e..%fl_7#S8+D@&eaN<u8qFJ,fTO":,R+.U_Jj"nE3I5_&h8!X,A-(j^=U
49Pp$+@(GWJZ/^*?<nZa!<NB0&0O5GWdpdE(W\so!!*-(#S<@Q@-H,Endlp/J,fTO"JuMCH?Fd$":,P]
5_&icW<.f\>p'XY!X&c?+@'>7J>$$\a?tIX!<NB0&==qTkg]k-&0O5g!!*-(V@"/dFb)XX#S8+DJ,k/"
!et#e+:eJS":,P]5[^UBTiW&O6\#.;!X&c?QmuM-eHPLT+@(GW!<ND$$5e)3JNO&@&0O5g!.h*NL0e..
%fl_7#S8+D@&eaN<u8qFJ,fTO":,R+.U_Jj"nE3I5_&h8!X,A-(j^=U49Pp$+@(GWJZ/^*?<nZa!<NB0
&0O5GWdpdE(W\so!!*-(#S<@Q@-H,Endlp/J,fTO"JuMCH?Fd$":,P]5_&icW<.f\>p'XY!X&c?+@'>7
J>$$\a?tIX!<NB0&==qTkg]k-&0O5g!!*-(V@"/dFb)XX#S8+DJ,k/"!et#e+:eJS":,P]5[^UBTiW&O
6\#.;!X&c?QmuM-eHPLT+@(GW!<ND$$5e)3JNO&@&0O5g!.h*NL0e..%fl_7#S8+D@&eaN<u8qFJ,fTO
":,R+.U_Jj"nE3I5_&h8!X,A-(j^=U49Pp$+@(GWJZ/^*?<nZa!<NB0&0O5GWdpdE(W\so!!*-(#S<@Q
@-H,Endlp/J,fTO"JuMCH?Fd$":,P]5_&icW<.f\>p'XY!X&c?+@'>7J>$$\a?tIX!<NB0&==qTkg]k-
&0O5g!!*-(V@"/dFb)XX#S8+DJ,k/"!et#e+:eJS":,P]5[^UBTiW&O6\#.;!X&c?QmuM-eHPLT+@(GW
!<ND$$5e)3JNO&@&0O5g!.h*NL0e..%fl_7#S8+D@&eaN<u8qFJ,fTO":,R+.U_Jj"nE3I5_&h8!X,A-
(j^=U49Pp$+@(GWJZ/^*?<nZa!<NB0&0O5GWdpdE(W\so!!*-(#S<@Q@-H,Endlp/J,fTO"JuMCH?Fd$
":,P]5_&icW<.f\>p'XY!X&c?+@'>7J>$$\a?tIX!<NB0&==qTkg]k-&0O5g!!*-(V@"/dFb)XX#S8+D
J,k/"!et#e+:eJS":,P]5[^UBTiW&O6\#.;!X&c?QmuM-eHPLT+@(GW!<ND$$5e)3JNO&@&0O5g!.h*N
L0e..%fl_7#S8+D@&eaN<u8qFJ,fTO":,R+.U_Jj"nE3I5_&h8!X,A-(j^=U49Pp$+@(GWJZ/^*?<nZa
!<NB0&0O5GWdpdE(W\so!!*-(#S<@Q@-H,Endlp/J,fTO"JuMCH?Fd$":,P]5_&icW<.f\>p'XY!X&c?
+@'>7J>$$\a?tIX!<NB0&==qTkg]k-&0O5g!!*-(V@"/dFb)XX#S8+DJ,k/"!et#e+:eJS":,P]5[^UB
TiW&O6\#.;!X&c?QmuM-eHPLT+@(GW!<ND$$5e)3JNO&@&0O5g!.h*NL0e..%fl_7#S8+D@&eaN<u8qF
J,fTO":,R+.U_Jj"nE3I5_&h8!X,A-(j^=U49Pp$+@(GWJZ/^*?<nZa!<NB0&0O5GWdpdE(W\so!!*-(
#S<@Q@-H,Endlp/J,fTO"JuMCH?Fd$":,P]5_&icW<.f\>p'XY!X&c?+@'>7J>$$\a?tIX!<NB0&==qT
kg]k-&0O5g!!*-(V@"/dFb)XX#S8+DJ,k/"!et#e+:eJS":,P]5[^UBTiW&O6\#.;!X&c?QmuM-eHPLT
+@(GW!<ND$$5e)3JNO&@&0O5g!.h*NL0e..%fl_7#S8+D@&eaN<u8qFJ,fTO":,R+.U_Jj"nE3I5_&h8
!X,A-(j^=U49Pp$+@(GWJZ/^*?<nZa!<NB0&0O5GWdpdE(W\so!!*-(#S<@Q@-H,Endlp/J,fTO"JuMC
H?Fd$":,P]5_&icW<.f\>p'XY!X&c?+@'>7J>$$\a?tIX!<NB0&==qTkg]k-&0O5g!!*-(V@"/dFb)XX
#S8+DJ,k/"!et#e+:eJS":,P]5[^UBTiW&O6\#.;!X&c?QmuM-eHPLT+@(GW!<ND$$5e)3JNO&@&0O5g
!.h*NL0e..%fl_7#S8+D@&eaN<u8qFJ,fTO":,R+.U_Jj"nE3I5_&h8!X,A-(j^=U49Pp$+@(GWJZ/^*
?<nZa!<NB0&0O5GWdpdE(W\so!!*-(#S<@Q@-H,Endlp/J,fTO"JuMCH?Fd$":,P]5_&icW<.f\>p'XY
!X&c?+@'>7J>$$\a?tIX!<NB0&==qTkg]k-&0O5g!!*-(V@"/dFb)XX#S8+DJ,k/"!et#e+:eJS":,P]
5[^UBTiW&O6\#.;!X&c?QmuM-eHPLT+@(GW!<ND$$5e)3JNO&@&0O5g!.h*NL0e..%fl_7#S8+D@&eaN
<u8qFJ,fTO":,R+.U_Jj"nE3I5_&h8!X,A-(j^=U49Pp$+@(GWJZ/^*?<nZa!<NB0&0O5GWdpdE(W\so
!!*-(#S<@Q@-H,Endlp/J,fTO"JuMCH?Fd$":,P]5_&icW<.f\>p'XY!X&c?+@'>7J>$$\a?tIX!<NB0
&==qTkg]k-&0O5g!!*-(V@"/dFb)XX#S8+DJ,k/"!et#e+:eJS":,P]5[^UBTiW&O6\#.;!X&c?QmuM-
eHPLT+@(GW!<ND$$5e)3JNO&@&0O5g!.h*NL0e..%fl_7#S8+D@&eaN<u8qFJ,fTO":,R+.U_Jj"nE3I
5_&h8!X,A-(j^=U49Pp$+@(GWJZ/^*?<nZa!<NB0&0O5GWdpdE(W\so!!*-(#S<@Q@-H,Endlp/J,fTO
"JuMCH?Fd$":,P]5_&icW<.f\>p'XY!X&c?+@'>7J>$$\a?tIX!<NB0&==qTkg]k-&0O5g!!*-(V@"/d
Fb)XX#S8+DJ,k/"!et#e+:eJS":,P]5[^UBTiW&O6\#.;!X&c?QmuM-eHPLT+@(GW!<ND$$5e)3JNO&@
&0O5g!.h*NL0e..%fl_7#S8+D@&eaN<u8qFJ,fTO":,R+.U_Jj"nE3I5_&h8!X,A-(j^=U49Pp$+@(GW
JZ/^*?<nZa!<NB0&0O5GWdpdE(W\so!!*-(#S<@Q@-H,Endlp/J,fTO"JuMCH?Fd$":,P]5_&icW<.f\
>p'XY!X&c?+@'>7J>$$\a?tIX!<NB0&==qTkg]k-&0O5g!!*-(V@"/dFb)XX#S8+DJ,k/"!et#e+:eJS
":,P]5[^UBTiW&O6\#.;!X&c?QmuM-eHPLT+@(GW!<NDt;W,<>ZMrh+8"1Uh3AC+!o#0rQ":,P]5_&ic
I2)JOqnHD7nBNPB`K*3ppV>/1b7hMB&0O5g!!*-(p/']9?<aLch?Su5TD[iZ2t&h1)LD:*@Wrdn":,P]
5_-Z,#sA1thu2a(U%a0]T>10?ij\Y%/.K;k40^jX!<NB0&0O5GmfYiQ_uKMrC?U)N=B0j`Gk^XBlHKaN
\j.;<":,P]5_-Z,#sA3Bja--=[.r2:eaL2"pL*Z7n^P5GqiSAQ!dP%_+@(GW!<W-CYhaWkU%dO*UXen8
5Il-F*dTJWHG5p&]*5t@&0O5g!!*-(p.+'2Vrq2))0uh7rg_X('`nLD&0O5g_#=VP^\WB1cW<X&U%ddA
2eqe&XBlfkFb)XX#S8+DJ,k0!&bu-fkP9.@ZlXOS(I)90?G:XX@.cF4?<nZa!<NB0&0O5G*sL4_Du%:0
QCGW_jmKt5d+c_W]A!l>5_&h8!X/3oi7!V!0_o?WIf7t>pDkdo]tHP5]+"cB":,P]5[YZ;2FDEYdoR<C
f0?nA^sLiZ'>*!1+@(GW!<ND$$5e)3JNO&@&0O5g!.h*NL0e..%fl_7#S8+D@&eaN<u8qFJ,fTO":,R+
.U_Jj"nE3I5_&h8!X,A-(j^=U49Pp$+@(GWJZ/^*?<nZa!<NB0&0O5GWdpdE(W\so!!*-(#S<@Q@-H,E
ndlp/J,fTO"JuMCH?Fd$":,P]5_&icW<.f\>p'XY!X&c?+@'>7J>$$\a?tIX!<NB0&==qTkg]k-&0O5g
!!*-(V@"/dFb)XX#S8+DJ,k/"!et#e+:eJS":,P]5[^UBTiW&O6\#.;!X&c?QmuM-eHPLT+@(GW!<ND$
$5e)3JNO&@&0O5g!.h*NL0e..%fl_7#S8+D@&eaN<u8qFJ,fTO":,R+.U_Jj"nE3I5_&h8!X,A-(j^=U
49Pp$+@(GWJZ/^*?<nZa!<NB0&0O5GWdpdE(W\so!!*-(#S<@Q@-H,Endlp/J,fTO"JuMCH?Fd$":,P]
5_&icW<.f\>p'XY!X&c?+@'>7J>$$\a?tIX!<NB0&==qTkg]k-&0O5g!!*-(V@"/dFb)XX#S8+DJ,k/"
!et#e+:eJS":,P]5[^UBTiW&O6\#.;!X&c?QmuM-eHPLT+@(GW!<ND$$5e)3JNO&@&0O5g!.h*NL0e..
%fl_7#S8+D@&eaN<u8qFJ,fTO":,R+.U_Jj"nE3I5_&h8!X,A-(j^=U49Pp$+@(GWJZ/^*?<nZa!<NB0
&0O5GWdpdE(W\so!!*-(#S<@Q@-H,Endlp/J,fTO"JuMCH?Fd$":,P]5_&icW<.f\>p'XY!X&c?+@'>7
J>$$\a?tIX!<NB0&==qTkg]k-&0O5g!!*-(V@"/dFb)XX#S8+DJ,k/"!et#e+:eJS":,P]5[^UBTiW&O
6\#.;!X&c?QmuM-eHPLT+@(GW!<ND$$5e)3JNO&@&0O5g!.h*NL0e..%fl_7#S8+D@&eaN<u8qFJ,fTO
":,R+.U_Jj"nE3I5_&h8!X,A-(j^=U49Pp$+@(GWJZ/^*?<nZa!<NB0&0O5GWdpdE(W\so!!*-(#S<@Q
@-H,Endlp/J,fTO"JuMCH?Fd$":,P]5_&icW<.f\>p'XY!X&c?+@'>7J>$$\a?tIX!<NB0&==qTkg]k-
&0O5g!!*-(V@"/dFb)XX#S8+DJ,k/"!et#e+:eJS":,P]5[^UBTiW&O6\#.;!X&c?QmuM-eHPLT+@(GW
!<ND$$5e)3JNO&@&0O5g!.h*NL0e..%fl_7#S8+D@&eaN<u8qFJ,fTO":,R+.U_Jj"nE3I5_&h8!X,A-
(j^=U49Pp$+@(GWJZ/^*?<nZa!<NB0&0O5GWdpdE(W\so!!*-(#S<@Q@-H,Endlp/J,fTO"JuMCH?Fd$
":,P]5_&icW<.f\>p'XY!X&c?+@'>7J>$$\a?tIX!<NB0&==qTkg]k-&0O5g!!*-(V@"/dFb)XX#S8+D
J,k/"!et#e+:eJS":,P]5[^UBTiW&O6\#.;!X&c?QmuM-eHPLT+@(GW!<ND$$5e)3JNO&@&0O5g!.h*N
L0e..%fl_7#S8+D@&eaN<u8qFJ,fTO":,R+.U_Jj"nE3I5_&h8!X,A-(j^=U49Pp$+@(GWJZ/^*?<nZa
!<NB0&0O5GWdpdE(W\so!!*-(#S<@Q@-H,Endlp/J,fTO"JuMCH?Fd$":,P]5_&icW<.f\>p'XY!X&c?
+@'>7J>$$\a?tIX!<NB0&==qTkg]k-&0O5g!!*-(V@"/dFb)XX#S8+DJ,k/"!et#e+:eJS":,P]5[^UB
TiW&O6\#.;!X&c?QmuM-eHPLT+@(GW!<ND$$5e)3JNO&@&0O5g!.h*NL0e..%fl_7#S8+D@&eaN<u8qF
J,fTO":,R+.U_Jj"nE3I5_&h8!X,A-(j^=U49Pp$+@(GWJZ/^*?<nZa!<NB0&0O5GWdpdE(W\so!!*-(
#S<@Q@-H,Endlp/J,fTO"JuMCH?Fd$":,P]5_&icW<.f\>p'XY!X&c?+@'>7J>$$\a?tIX!<NB0&==qT
kg]k-&0O5g!!*-(V@"/dFb)XX#S8+DJ,k/"!et#e+:eJS":,P]5[^UBTiW&O6\#.;!X&c?QmuM-eHPLT
+@(GW!<ND$$5e)3JNO&@&0O5g!.h*NL0e..%fl_7#S8+D@&eaN<u8qFJ,fTO":,R+.U_Jj"nE3I5_&h8
!X,A-(j^=U49Pp$+@(GWJZ/^*?<nZa!<NB0&0O5GWdpdE(W\so!!*-(#S<@Q@-H,Endlp/J,fTO"JuMC
H?Fd$":,P]5_&icW<.f\>p'XY!X&c?+@'>7J>$$\a?tIX!<NB0&==qTkg]k-&0O5g!!*-(V@"/dFb)XX
#S8+DJ,k/"!et#e+:eJS":,P]5[^UBTiW&O6\#.;!X&c?QmuM-eHPLT+@(GW!<ND$$5e)3JNO&@&0O5g
!.h*NL0e..%fl_7#S8+D@&eaN<u8qFJ,fTO":,R+.U_Jj"nE3I5_&h8!X,A-(j^=U49Pp$+@(GWJZ/^*
?<nZa!<NB0&0O5GWdpdE(W\so!!*-(#S<@Q@-H,Endlp/J,fTO"JuMCH?Fd$":,P]5_&icW<.f\>p'XY
!X&c?+@'>7J>$$\a?tIX!<NB0&==qTkg]k-&0O5g!!*-(V@"/dFb)XX#S8+DJ,k/"!et#e+:eJS":,P]
5[^UBTiW&O6\#.;!X&c?QmuM-eHPLT+@(GW!<ND$$5e)3JNO&@&0O5g!.h*NL0e..%fl_7#S8+D@&eaN
<u8qFJ,fTO":,R+.U_Jj"nE3I5_&h8!X,A-(j^=U49Pp$+@(GWJZ/^*?<nZa!<NB0&0O5GWdpdE(W\so
!!*-(#S<@Q@-H,Endlp/J,fTO"JuMCH?Fd$":,P]5_&icW<.f\>p'XY!X&c?+@'>7J>$$\a?tIX!<NB0
&==qTkg]k-&0O5g!!*-(V@"/dFb)XX#S8+DJ,k/"!et#e+:eJS":,P]5[^UBTiW&O6\#.;!X&c?QmuM-
eHPLT+@(GW!<ND$$5e)3JNO&@&0O5g!.h*NL0e..%fl_7#S8+D@&eaN<u8qFJ,fTO":,R+.U_Jj"nE3I
5_&h8!X,A-(j^=U49Pp$+@(GWJZ/^*?<nZa!<NB0&0O5GWdpdE(W\so!!*-(#S<@Q@-H,Endlp/J,fTO
"JuMCH?Fd$":,P]5_&icW<.f\>p'XY!X&c?+@'>7J>$$\a?tIX!<NB0&==qTkg]k-&0O5g!!*-(V@"/d
Fb)XX#S8+DJ,k/"!et#e+:eJS":,P]5[^UBTiW&O6\#.;!X&c?QmuM-eHPLT+@(GW!<ND$$5e)3JNO&@
&0O5g!.h*NL0e..%fl_7#S8+D@&eaN<u8qFJ,fTO":,R+.U_Jj"nE3I5_&h8!X/3ni:3SWh].%>k`_nb
(j^OR@Wrdn":,P]5_-Z,$%2a'G8?*dr94(BSQ?Sb++8>$JYBQ&-[+Yr5_&h8!X&eqS\UkHs$&aDh7rl?
O-^q>hLG*cfA9chF0ILnp@#rf49Pp$+@(GWJUJ2Vr1/&W?[f<UbN07`I"(RC`Gb3*=;lL4G@Gb<!X&c?
+@(Im^'T2\T72"`o#o"EJ$E*UJ%U%#m_S2U%)'5;*WcHM&0O5g^jZXge`(L2>5W,XoY%a&*ir[#SsoD&
5Oqi\+:eJS":,P]5[]'EY3in%qWaQn%i6=i%U]1Vh1PCIHXW]@--^lkpg&US!<NB0&0S2A!foQ/chcjD
^Al6G)gYkTrAh./.g-+h+@(GWJc-1*J+`]AT:[5'oljb-s5DAeDq*W,=M6Q`l2l5:&0O5g!!*/u,Ok4V
ch$7=q%nrR>J9lXnalFsp[0*(IbN/L$fiHrJ,fTO":4@b^q5MK2?uHoA%DEY<:1eY%DD^%Yr`Hs!X&c?
+@'>l"Fg+$J,7ctr9a'-`Qt.RqR&8JpDb^n]tHM4]+4oD":,P]5[`IPIX^gRUqFBGrq)Jpiq:hdG]rhs
d+c/G]DE-^5_&h8!X,A-(j^=U49Pp$+@(GWJZ/^*?<nZa!<NB0&0O5GWdpdE(W\so!!*-(#S<@Q@-H,E
ndlp/J,fTO"JuMCH?Fd$":,P]5_&icW<.f\>p'XY!X&c?+@'>7J>$$\a?tIX!<NB0&==qTkg]k-&0O5g
!!*-(V@"/dFb)XX#S8+DJ,k/"!et#e+:eJS":,P]5[^UBTiW&O6\#.;!X&c?QmuM-eHPLT+@(GW!<ND$
$5e)3JNO&@&0O5g!.h*NL0e..%fl_7#S8+D@&eaN<u8qFJ,fTO":,R+.U_Jj"nE3I5_&h8!X,A-(j^=U
49Pp$+@(GWJZ/^*?<nZa!<NB0&0O5GWdpdE(W\so!!*-(#S<@Q@-H,Endlp/J,fTO"JuMCH?Fd$":,P]
5_&icW<.f\>p'XY!X&c?+@'>7J>$$\a?tIX!<NB0&==qTkg]k-&0O5g!!*-(V@"/dFb)XX#S8+DJ,k/"
!et#e+:eJS":,P]5[^UBTiW&O6\#.;!X&c?QmuM-eHPLT+@(GW!<ND$$5e)3JNO&@&0O5g!.h*NL0e..
%fl_7#S8+D@&eaN<u8qFJ,fTO":,R+.U_Jj"nE3I5_&h8!X,A-(j^=U49Pp$+@(GWJZ/^*?<nZa!<NB0
&0O5GWdpdE(W\so!!*-(#S<@Q@-H,Endlp/J,fTO"JuMCH?Fd$":,P]5_&icW<.f\>p'XY!X&c?+@'>7
J>$$\a?tIX!<NB0&==qTkg]k-&0O5g!!*-(V@"/dFb)XX#S8+DJ,k/"!et#e+:eJS":,P]5[^UBTiW&O
6\#.;!X&c?QmuM-eHPLT+@(GW!<ND$$5e)3JNO&@&0O5g!.h*NL0e..%fl_7#S8+D@&eaN<u8qFJ,fTO
":,R+.U_Jj"nE3I5_&h8!X,A-(j^=U49Pp$+@(GWJZ/^*?<nZa!<NB0&0O5GWdpdE(W\so!!*-(#S<@Q
@-H,Endlp/J,fTO"JuMCH?Fd$":,P]5_&icW<.f\>p'XY!X&c?+@'>7J>$$\a?tIX!<NB0&==qTkg]k-
&0O5g!!*-(V@"/dFb)XX#S8+DJ,k/"!et#e+:eJS":,P]5[^UBTiW&O6\#.;!X&c?QmuM-eHPLT+@(GW
!<ND$$5e)3JNO&@&0O5g!.h*NL0e..%fl_7#S8+D@&eaN<u8qFJ,fTO":,R+.U_Jj"nE3I5_&h8!X,A-
(j^=U49Pp$+@(GWJZ/^*?<nZa!<NB0&0O5GWdpdE(W\so!!*-(#S<@Q@-H,Endlp/J,fTO"JuMCH?Fd$
":,P]5_&icW<.f\>p'XY!X&c?+@'>7J>$$\a?tIX!<NB0&==qTkg]k-&0O5g!!*-(V@"/dFb)XX#S8+D
J,k/"!et#e+:eJS":,P]5[^UBTiW&O6\#.;!X&c?QmuM-eHPLT+@(GW!<ND$$5e)3JNO&@&0O5g!.h*N
L0e..%fl_7#S8+D@&eaN<u8qFJ,fTO":,R+.U_Jj"nE3I5_&h8!X,A-(j^=U49Pp$+@(GWJZ/^*?<nZa
!<NB0&0O5GWdpdE(W\so!!*-(#S<@Q@-H,Endlp/J,fTO"JuMCH?Fd$":,P]5_&icW<.f\>p'XY!X&c?
+@'>7J>$$\a?tIX!<NB0&==qTkg]k-&0O5g!!*-(V@"/dFb)XX#S8+DJ,k/"!et#e+:eJS":,P]5[^UB
TiW&O6\#.;!X&c?QmuM-eHPLT+@(GW!<ND$$5e)3JNO&@&0O5g!.h*NL0e..%fl_7#S8+D@&eaN<u8qF
J,fTO":,R+.U_Jj"nE3I5_&h8!X,A-(j^=U49Pp$+@(GWJZ/^*?<nZa!<NB0&0O5GWdpdE(W\so!!*-(
#S<@Q@-H,Endlp/J,fTO"JuMCH?Fd$":,P]5_&icW<.f\>p'XY!X&c?+@'>7J>$$\a?tIX!<NB0&==qT
kg]k-&0O5g!!*-(V@"/dFb)XX#S8+DJ,k/"!et#e+:eJS":,P]5[^UBTiW&O6\#.;!X&c?QmuM-eHPLT
+@(GW!<ND$$5e)3JNO&@&0O5g!.h*NL0e..%fl_7#S8+D@&eaN<u8qFJ,fTO":,R+.U_Jj"nE3I5_&h8
!X,A-(j^=U49Pp$+@(GWJZ/^*?<nZa!<NB0&0O5GWdpdE(W\so!!*-(#S<@Q@-H,Endlp/J,fTO"JuMC
H?Fd$":,P]5_&icW<.f\>p'XY!X&c?+@'>7J>$$\a?tIX!<NB0&==qTkg]k-&0O5g!!*-(V@"/dFb)XX
#S8+DJ,k/"!et#e+:eJS":,P]5[^UBTiW&O6\#.;!X&c?QmuM-eHPLT+@(GW!<ND$$5e)3JNO&@&0O5g
!.h*NL0e..%fl_7#S8+D@&eaN<u8qFJ,fTO":,R+.U_Jj"nE3I5_&h8!X,A-(j^=U49Pp$+@(GWJZ/^*
?<nZa!<NB0&0O5GWdpdE(W\so!!*-(#S<@Q@-H,Endlp/J,fTO"JuMCH?Fd$":,P]5_&icW<.f\>p'XY
!X&c?+@'>7J>$$\a?tIX!<NB0&==qTkg]k-&0O5g!!*-(V@"/dFb)XX#S8+DJ,k/"!et#e+:eJS":,P]
5[^UBTiW&O6\#.;!X&c?QmuM-eHPLT+@(GW!<ND$$5e)3JNO&@&0O5g!.h*NL0e..%fl_7#S8+D@&eaN
<u8qFJ,fTO":,R+.U_Jj"nE3I5_&h8!X,A-(j^=U49Pp$+@(GWJZ/^*?<nZa!<NB0&0O5GWdpdE(W\so
!!*-(#S<@Q@-H,Endlp/J,fTO"JuMCH?Fd$":,P]5_&icW<.f\>p'XY!X&c?+@'>7J>$$\a?tIX!<NB0
&==qTkg]k-&0O5g!!*-(V@"/dFb)XX#S8+DJ,k/"!et#e+:eJS":,P]5[^UBTiW&O6\#.;!X&c?QmuM-
eHPLT+@(GW!<ND$$5e)3JNO&@&0O5g!.h*NL0e..%fl_7#S8+D@&eaN<u8qFJ,fTO":,R+.U_Jj"nE3I
5_&h8!X,A-(j^=U49Pp$+@(GWJZ/^*?<nZa!<NB0&0O5GWdpdE(W\so!!*-(#S<@Q@-H,Endlp/J,fTO
"JuMCH?Fd$":,P]5_&icW<.f\>p'XY!X&c?+@'>7J>$$\a?tIX!<NB0&==qTkg]k-&0O5g!!*-(V@"/d
Fb)XX#S8+DJ,k/"!et#e+:eJS":,P]5[^UBTiW&O6\#.;!X&c?QmuM-eHPLT+@(GW!<ND$$5e)3JNO&@
&0O5g!.h*NL0e..%fl_7#S8+D@&eaN<u8qFJ,fTO":,R+.U_Jj"nE3I5_&h8!X,A-(j^=U49Pp$+@(GW
JZ/^*?<nZa!<NB0&0O5GWdpdE(W\so!!*-(#S>WUJ^==VcSc#855O>S#DV(VT%G'=!!*-(#S8,_G62-a
[9,!ZeS=B_o?(P4U\bQ1^&:$t3tD>n":,P]5[a$`rq.B2Qf[-(UOT[VI^"(sa_tL4o=fjRTsoM!G3:#6
J,fTO":4@`^mD8&q>&4Kps,)b%t8nTn;G8(ml=JgH@'jFG96kh#S8+DJAC"J4T>B+?i9^M:VKr4W]sh&
HhUq@AqjVt+:eJS":,P]5[Y*+Sp^8"X8i(fUW'E;YC,g+]*GC'L0e..%fl_7#S8+D?k3G?b@:"frl=TI
`CHt1?N&"%K@S/a;tJl78)C6Rj<6d=!!*-(#jdVfj%n"-g2N[5n_a?@&-']%%D<Q@5@:kciI]s,#S8+D
J,fTOq]kV0lKPh)2ohP<kMJJ7r/KFB#HO2G?<nZa!<NB0&0O5GIfqt7ja"T<oU#U(lBPHN\&XE!03<Yq
ik;r/X#Da)l2l5:&0O5g!!*/u-LgQb0@+#)DXm1^5C?tOq9)b**\7c6]fWL2%fl_7#S8+D@.+6TGkJu9
hu3$drP-Md(-d0:ldsuqhK,nXo_.almQ:UX&0O5g!.hfsq#!o(MoG_epZG%2I:][.rNgh]%))U$Yr`Hs
!X&c?+@'>7J>$$\a?tIX!<NB0&==qTkg]k-&0O5g!!*-(V@"/dFb)XX#S8+DJ,k/"!et#e+:eJS":,P]
5[^UBTiW&O6\#.;!X&c?QmuM-eHPLT+@(GW!<ND$$5e)3JNO&@&0O5g!.h*NL0e..%fl_7#S8+D@&eaN
<u8qFJ,fTO":,R+.U_Jj"nE3I5_&h8!X,A-(j^=U49Pp$+@(GWJZ/^*?<nZa!<NB0&0O5GWdpdE(W\so
!!*-(#S<@Q@-H,Endlp/J,fTO"JuMCH?Fd$":,P]5_&icW<.f\>p'XY!X&c?+@'>7J>$$\a?tIX!<NB0
&==qTkg]k-&0O5g!!*-(V@"/dFb)XX#S8+DJ,k/"!et#e+:eJS":,P]5[^UBTiW&O6\#.;!X&c?QmuM-
eHPLT+@(GW!<ND$$5e)3JNO&@&0O5g!.h*NL0e..%fl_7#S8+D@&eaN<u8qFJ,fTO":,R+.U_Jj"nE3I
5_&h8!X,A-(j^=U49Pp$+@(GWJZ/^*?<nZa!<NB0&0O5GWdpdE(W\so!!*-(#S<@Q@-H,Endlp/J,fTO
"JuMCH?Fd$":,P]5_&icW<.f\>p'XY!X&c?+@'>7J>$$\a?tIX!<NB0&==qTkg]k-&0O5g!!*-(V@"/d
Fb)XX#S8+DJ,k/"!et#e+:eJS":,P]5[^UBTiW&O6\#.;!X&c?QmuM-eHPLT+@(GW!<ND$$5e)3JNO&@
&0O5g!.h*NL0e..%fl_7#S8+D@&eaN<u8qFJ,fTO":,R+.U_Jj"nE3I5_&h8!X,A-(j^=U49Pp$+@(GW
JZ/^*?<nZa!<NB0&0O5GWdpdE(W\so!!*-(#S<@Q@-H,Endlp/J,fTO"JuMCH?Fd$":,P]5_&icW<.f\
>p'XY!X&c?+@'>7J>$$\a?tIX!<NB0&==qTkg]k-&0O5g!!*-(V@"/dFb)XX#S8+DJ,k/"!et#e+:eJS
":,P]5[^UBTiW&O6\#.;!X&c?QmuM-eHPLT+@(GW!<ND$$5e)3JNO&@&0O5g!.h*NL0e..%fl_7#S8+D
@&eaN<u8qFJ,fTO":,R+.U_Jj"nE3I5_&h8!X,A-(j^=U49Pp$+@(GWJZ/^*?<nZa!<NB0&0O5GWdpdE
(W\so!!*-(#S<@Q@-H,Endlp/J,fTO"JuMCH?Fd$":,P]5_&icW<.f\>p'XY!X&c?+@'>7J>$$\a?tIX
!<NB0&==qTkg]k-&0O5g!!*-(V@"/dFb)XX#S8+DJ,k/"!et#e+:eJS":,P]5[^UBTiW&O6\#.;!X&c?
QmuM-eHPLT+@(GW!<ND$$5e)3JNO&@&0O5g!.h*NL0e..%fl_7#S8+D@&eaN<u8qFJ,fTO":,R+.U_Jj
"nE3I5_&h8!X,A-(j^=U49Pp$+@(GWJZ/^*?<nZa!<NB0&0O5GWdpdE(W\so!!*-(#S<@Q@-H,Endlp/
J,fTO"JuMCH?Fd$":,P]5_&icW<.f\>p'XY!X&c?+@'>7J>$$\a?tIX!<NB0&==qTkg]k-&0O5g!!*-(
V@"/dFb)XX#S8+DJ,k/"!et#e+:eJS":,P]5[^UBTiW&O6\#.;!X&c?QmuM-eHPLT+@(GW!<ND$$5e)3
JNO&@&0O5g!.h*NL0e..%fl_7#S8+D@&eaN<u8qFJ,fTO":,R+.U_Jj"nE3I5_&h8!X,A-(j^=U49Pp$
+@(GWJZ/^*?<nZa!<NB0&0O5GWdpdE(W\so!!*-(#S<@Q@-H,Endlp/J,fTO"JuMCH?Fd$":,P]5_&ic
W<.f\>p'XY!X&c?+@'>7J>$$\a?tIX!<NB0&==qTkg]k-&0O5g!!*-(V@"/dFb)XX#S8+DJ,k/"!et#e
+:eJS":,P]5[^UBTiW&O6\#.;!X&c?QmuM-eHPLT+@(GW!<ND$$5e)3JNO&@&0O5g!.h*NL0e..%fl_7
#S8+D@&eaN<u8qFJ,fTO":,R+.U_Jj"nE3I5_&h8!X,A-(j^=U49Pp$+@(GWJZ/^*?<nZa!<NB0&0O5G
WdpdE(W\so!!*-(#S<@Q@-H,Endlp/J,fTO"JuMCH?Fd$":,P]5_&icW<.f\>p'XY!X&c?+@'>7J>$$\
a?tIX!<NB0&==qTkg]k-&0O5g!!*-(V@"/dFb)XX#S8+DJ,k/"!et#e+:eJS":,P]5[^UBTiW&O6\#.;
!X&c?QmuM-eHPLT+@(GW!<ND$$5e)3JNO&@&0O5g!.h*NL0e..%fl_7#S8+D@&eaN<u8qFJ,fTO":,R+
.U_Jj"nE3I5_&h8!X,A-(j^=U49Pp$+@(GWJZ/^*?<nZa!<NB0&0O5GWdpdE(W\so!!*-(#S<@Q@-H,E
ndlp/J,fTO"JuMCH?Fd$":,P]5_&icW<.f\>p'XY!X&c?+@'>7J>$$\a?tIX!<NB0&==qTkg]k-&0O5g
!!*-(V@"/dFb)XX#S8+DJ,k/"!et#e+:eJS":,P]5[^UBTiW&O6\#.;!X&c?QmuM-eHPLT+@(GW!<ND$
$5e)3JNO&@&0O5g!.h*NL0e..%fl_7#S8+D@&eaN<u8qFJ,fTO":,R+.U_Jj"nE3I5_&h8!X,A-(j^=U
49Pp$+@(GWJZ/^*?<nZa!<NB0&0O5GWdpdE(W\so!!*-(#S<@Q@-H,Endlp/J,fTO"JuMCH?Fd$":,P]
5_&icW<.f\>p'XY!X&c?+@'>7J>$$\a?tIX!<NB0&==qTkg]k-&0O5g!!*-(V@"/dFb)XX#S8+DJ,k/"
!et#e+:eJS":,P]5[^UBTiW&O6\#.;!X&c?QmuM-eHPLT+@(GW!<ND$$5e)3JNO&@&0O5g!.h*NL0e..
%fl_7#S8+D@&eaN<u8qFJ,fTO":,R+.U_Jj"nE3I5_&h8!X,A-(j^=U49Pp$+@(GWJZ/^*?<nZa!<NB0
&0O5GWdpdE(W\so!!*-(#S<@Q@-H,Endlp/J,fTO"JuMCH?Fd$":,P]5_&icW<.f\>p'XY!X&c?+@'>7
J>$$\a?tIX!<NB0&==qTkg]k-&0O5g!!*-(V@"/dFb)XX#S8+DJ,k/"!et#e+:eJS":,P]5[^UBTiW&O
6\#.;!X&c?QmuM-eHPLT+@(GW!<ND$$5e)3JNO&@&0O5g!.h*NL0e..%fl_7#S8+D@&eaN<u8qFJ,fTO
":,R+.U_Jj"nE3I5_&h8!X,A-(j^=U49Pp$+@(GWJZ/^*?<nZa!<NB0&0O5GWdpdE(W\so!!*-(#S<@Q
@-H,Endlp/J,fTO"JuMCH?Fd$":,P]5_&icW<.f\>p'XY!X&c?+@'>7J>$$\a?tIX!<NB0&==qTkg]k-
&0O5g!!*-(V@"/dFb)XX#S8+DJ,k/"!et#e+:eJS":,P]5[Z5K55RRr5CE:jPN>^Q%)'>:Yr`Bq!X&c?
+@'<f"lB%BlK(+2//CJHm+qh3Da.%a:.'O3!<NB0&D0L(pD9m(pVGkf-bjroc2/!:L>H7.f\M8^!<NB0
&0S34!rr"qYHN];%t8p*iYRO1hK,nXo_.gnmPk=T&0O5g!.k(^Gk/WKft6E7mu,/bqW#Q,G7R_mAa%YJ
ndlp/J,fTO"SPXL0E1.\=$uGO`NN=GIIHR8#HO2LVrk\MO1\I/a?tIX!<NB0&D/(UMk0V.`SW:L6gqq3
8#o]urQ3lJp!A&Zj7=S@r[mnNLB%>V":,P]YWi2M5<[?`+9'Bs?Q+5$aSq^^k7n%$#S8+DJAD-i]YF;k
f?aKAs7E?&5Q'-:I/&1S])7QA]*GC'L0e..%fl_7#S8+D@"/;CroJF>r:.aUC%mh3Mk;Y(J+Va6]*GCG
2Y?89GmFs(5_&h8!rF>6jl>t1eTW*b\btD*bKXCkEq`sUkj@2_h0fP?+@(GW!<RTsnF#El9`E_/?bc<S
I0WD4Da.%a:.'O3!<NB0&D0X,p!?qBoTdDTp!<%h0_G)1`9oGb#S8+DJ,k/"!et#e+:eJS":,P]5[^UB
TiW&O6\#.;!X&c?QmuM-eHPLT+@(GW!<ND$$5e)3JNO&@&0O5g!.h*NL0e..%fl_7#S8+D@&eaN<u8qF
J,fTO":,R+.U_Jj"nE3I5_&h8!X,A-(j^=U49Pp$+@(GWJZ/^*?<nZa!<NB0&0O5GWdpdE(W\so!!*-(
#S<@Q@-H,Endlp/J,fTO"JuMCH?Fd$":,P]5_&icW<.f\>p'XY!X&c?+@'>7J>$$\a?tIX!<NB0&==qT
kg]k-&0O5g!!*-(V@"/dFb)XX#S8+DJ,k/"!et#e+:eJS":,P]5[^UBTiW&O6\#.;!X&c?QmuM-eHPLT
+@(GW!<ND$$5e)3JNO&@&0O5g!.h*NL0e..%fl_7#S8+D@&eaN<u8qFJ,fTO":,R+.U_Jj"nE3I5_&h8
!X,A-(j^=U49Pp$+@(GWJZ/^*?<nZa!<NB0&0O5GWdpdE(W\so!!*-(#S<@Q@-H,Endlp/J,fTO"JuMC
H?Fd$":,P]5_&icW<.f\>p'XY!X&c?+@'>7J>$$\a?tIX!<NB0&==qTkg]k-&0O5g!!*-(V@"/dFb)XX
#S8+DJ,k/"!et#e+:eJS":,P]5[^UBTiW&O6\#.;!X&c?QmuM-eHPLT+@(GW!<ND$$5e)3JNO&@&0O5g
!.h*NL0e..%fl_7#S8+D@&eaN<u8qFJ,fTO":,R+.U_Jj"nE3I5_&h8!X,A-(j^=U49Pp$+@(GWJZ/^*
?<nZa!<NB0&0O5GWdpdE(W\so!!*-(#S<@Q@-H,Endlp/J,fTO"JuMCH?Fd$":,P]5_&icW<.f\>p'XY
!X&c?+@'>7J>$$\a?tIX!<NB0&==qTkg]k-&0O5g!!*-(V@"/dFb)XX#S8+DJ,k/"!et#e+:eJS":,P]
5[^UBTiW&O6\#.;!X&c?q#B*\K*]`f0S&1JeelM26hW3h,Wb98/!6*m_ih:Ul4?NJV+ZTF,gmhdHV'Ce
+gSDZp6)hhZ=5(^/!6p<P$"JHZBhSSf6C$Yqu?]RR6CQ8o$m8Y5)4?bcgSL7qomC1qp&e*i1_#N5WAo]
:d>$b'Moof!>iH5!Q$:YJ-$'+TR[)H$b5Ch%hMJ:"Vacu!<j1Y>/3Q[H@TrA.%l(l$7MQ4ecIIMd0#&#
5QM$&:d>$bZ5.E,M]O"2!X^?KJ-$'+OL9Us?M"6V'Mq$q"VacuJZK#[oV)QrVgngU.%l(l$=kaHU),sX
3!C!m5QM$&:`sNS(VT#5_C;..!X^?KJ-&j]\EH?l&5E60'Mq$q"Vf$]^dTo&J8biDTR[(N.%iiV!\SfH
",'T<!<j065QM%o(3%ZZ*[$sS$7MQt!X^?;[=F0AoDmha:d>$b'Mq&GX9Dl$U'Ct%J-$'+TR[(NA1c`6
(Hk#C"Vacu!<j06+DUuo^$#L6.A21m$7MQt!a,o@kX?!n:&tM4:d>$b'ZaIn75&t;E!e"dJ-$'+TKq'0
/pbnIKMt,:"Vacu!<obEE7'Rb+IiK?.%l(l$7M"D5l$=Eq#CaMTR[(N.%iiZ!a3i,>58.*.%l(l$7MQ4
g&bF'2-TeU$7MQt!X^?K5hZ9BcS\o%!"(-IJ-$'+TKq34=jJs/q#CaMTR[(N.%iiZ!a3i,>58.*.%l(l
$7MQ4g&bF'2-TeU$7MQt!X^?K5hZ9BcS\o%!"(-IJ-$'+TKq34=jJs/q#CaMTR[(N.%iiZ!a3i,>58.*
.%l(l$7MQ4g&bF'2-TeU$7MQt!X^?K5hZ9BcS\o%!"(-IJ-$'+TKq34=jJs/q#CaMTR[(N.%iiZ!a3i,
>58.*.%l(l$7MQ4g&bF'2-TeU$7MQt!X^?K5hZ9BcS\o%!"(-IJ-$'+TKq34=jJs/q#CaMTR[(N.%iiZ
!a3i,>58.*.%l(l$7MQ4g&bF'2-TeU$7MQt!X^?K5hZ9BcS\o%!"(-IJ-$'+TKq34=jJs/q#CaMTR[(N
.%iiZ!a3i,>58.*.%l(l$7MQ4g&bF'2-TeU$7MQt!X^?K5hZ9BcS\o%!"(-IJ-$'+TKq34=jJs/q#CaM
TR[(N.%iiZ!Y#-[s,6*A,6.]Dzzz!5O*"cGgsR,6XKPgl*9tgn!o.-\sYYl,RN1%'_,u^I=1pl:/Mml`
S,K5iHR)A+<?%FrLnp$?*hq=$a93G\3q_BCA5a&a8XU#?lIn,C5;V-^USU#^,*&CMR"HVhjublrEP"[c
R2ngcB[orh]$DliU5DL;Qqt\*c-o$5D?O6\0X>n3["oqSV$.d:3<*n_iNnf!5*j7F)S2doLRuoetO'mG
Eu,<;ftFbkpe_FS"H9d:7j_>\ip??[!M#!=Eb_TtkR%D)`4X]FBVt$+Jlga(GpT\"BGY#W"J[B(l!iHT
uh<8AD7-f3E0F-_Heir4;`IoGhl%O3J`k\"^XFS%QB27(;-UY/<\Y]%_2m.8Y1,mM..^%JL4jgP13c:M
,ZOFuFZ.0R#-eboV)_gX1WVRN?nMCrOr5Yhd$L*[06oUU,`:gK*qd0lF1DE-o=XbHA`OJ@aKS;5!>8>S
O-K%JQFrq6o84p>u4qIBQ$L''uCeD=e*b:-Wd.jD%ooWa.]7jIoKuhjQF4](G,D(CrYN4[tOTp27@ubH
A`OJ6p33\6koo2I$rp]++M+"8TCaQ.EY3EolEH6"4,,WVEolL%!d(h3+gUiJY/D`$]K,4C7]EAojkRCP
RD#Sg$q=i@D+LrJP"4D:fZ']FDISV75FQ.S.#X.rVkEh]@19DY+?W[NBs2\*Rkq>\loC>OCbEpNB!=Y^
1#hq95O+]Bu51d9BlJb&5,r(RLDr@99,o2XFcSq6o6Oe_aB^lhp="c-=gdrIHW*>^:2Nb"pE;KXom`c+
fM@rncDrhNmludTb+OK]tCBj`S)CkgeLD?%LGYYU`Or)g2AtDSo'CXEuLDHQSbqY==Qal?MW[Hsq5:[L
;[[X*"eTmXLJooF''!K]tCBj`S(XLK`MNfG,gJ%D)\<\)D;Vc*n-(41SSdmg8>BgWi3J&8Po6o?m,>-[
Lk6&'j'soNT!>>OK&T5+XoT0;"+C,YW^6.D-/f!0t$%=.o1Dm%4BF\)D;Vc*n-8Zk'(lYFUUn,L4m2iU
_-BU'HNToj'#[F7&V\el-@67aD\0`9O2`f(&WeM4Ps9mGSR&QX,APJC<1ks5PM-[p`X:nhqKe]Lp%Xpt
enalNKLF^$s_EU\]jdbIL-neM]C6YdG^Fd8L1Zqso<h%TiT^5'Qb8bL^$T?%CAXcp_k$:j<rQ"]B6USa
.Tr)VehK,LKl=r)\'E-i/qX^LnQbSo&-[!WW3#zzzzzzzzzzzzzzzzz!5SWQhbXuUJH~>

%AXGEndBitmap
GR
GR
GS
[0.47995 0 0 0.47989 880.72258 101.3887] CT
[1 0 0 1 0 0] CT
N
-2536.875 -54.874 M
-2536.875 1384 L
101.916 1384 L
101.916 -54.874 L
cp
clip
GS
0 0 translate
102 1384 scale
%AXGBeginBitmap: java.awt.image.BufferedImage
{{
/RawData currentfile /ASCII85Decode filter def
/Data RawData /FlateDecode filter def
/DeviceGray setcolorspace
<<
  /ImageType 1
  /Decode [0 1]
  /DataSource Data
  /Height 1384
  /ImageMatrix [102 0 0 1384 0 0]
  /Width 102
  /BitsPerComponent 8
>> image
} stopped {handleerror} if
  RawData flushfile
} exec
Gb"0VZ"k"M*!bsT'Ib6&HO%[Xi8Emb6'1)&\r'#_nW.WL&F&0s%NPVfPp53;im9!*%T:5NS0Ah4FQjpE
K_+#rek1lAg/hMMq$ukB\OYN>hVI;!,d45R,k;@:Thm-O$ACg?:ad"bKgMJ0-km#B6D76T-`)0i`5MS3
\PO[g$ACg?:ad"bKgMJ0-km#B6D74('FKO\Thm-O$ACg?:ad"bKgMJ0-km#B6D74('FKO\Thm-O$ACg?
:ahRC/(Pf;:ad"bKgMJ0-km#B6D74('FKO\Thm-O$ACg?:ad"bKgMJ0-km#B6D74('FKO\Thm/%ktq6T
\iD>=r=bF?Yr$B;Wj:G5O7nTW2-iXJF<XoU<j_2",+>6ip(s30;2d#hs0Z0odu<e:Y-RDiA*DF;(M334
IFO\#'BbMgVC6r>lIas*;g44lT&7O\]nnk<X5CZkpDATNThm-O$ACg?r/+M"-km#B6D74('FKO\Thm-O
$ACg?:ad"bKgMJ0-km#B6D74('FKO\Thm-O$ACg?:ad"bKgMJ0-km#B6D74(Pj)&H5=V>C-km#B6D74(
'FKO\Thm-O$ACg?:ad"bKgMJ0-km#B6D74('FKO\Thm-O$ACg?:ad"bKgMJ0-km#B6D76$<jBdbKgMJ0
-km#B6D74('FKO\Thm-O$ACg?:ad"bKgMJ0-km#B6D74('FKO\Thm-O$ACg?:ad"bKgMJ0-km#B69/8h
.VBG&KgMJ0-km#B6D74('FKO\Thm-O$ACg?:ad"bKgMJ0-km#B6D74('FKO\Thm-O$ACg?:ad"bKgMJ0
-kshr.+TK8:ad"bKgMJ0-km#B6D74('FKO\Thm-O$ACg?:ad"bKgN<Ub2hGkShB1](Qh@_rSEl<ER<I^
AaDRIM7DD8e]O/5]=W?Qqt'92K0.]!<H$mInFOM;(1_o,-+,i)]XiAA'sHY5%V>D%+LMIEjEkua1feZG
UV)PfNHef3=!)!@[c`sW&$\uuEt<=8>P#>uZ7G7IMgJISbBq7#`oDBO+)=U*c%<%:b,DhX<+W\*#I?A?
l[2Buaqqrk$VNLAC@1M+5@':^km=\`km;D^#M]%`&J5Te&\/JK!F6PNb5~>

%AXGEndBitmap
GR
GR
GS
[0.47995 0 0 0.47989 -336.92235 74.9948] CT
[1 0 0 1 0 0] CT
N
0.125 0.126 M
0.125 1439 L
2638.916 1439 L
2638.916 0.126 L
cp
clip
GS
0 0 translate
2537 55 scale
%AXGBeginBitmap: java.awt.image.BufferedImage
{{
/RawData currentfile /ASCII85Decode filter def
/Data RawData /FlateDecode filter def
/DeviceGray setcolorspace
<<
  /ImageType 1
  /Decode [0 1]
  /DataSource Data
  /Height 55
  /ImageMatrix [2537 0 0 55 0 0]
  /Width 2537
  /BitsPerComponent 8
>> image
} stopped {handleerror} if
  RawData flushfile
} exec
Gb"0P_/TPX#R!HVT7N_"V19U>l@tl9fRE?QOsEV^,Y=.E8Wk>jOsEV^,Y=.E8Wk>jOsEV^,Y=.E8Wk>j
OsEV^,Y=.E8Wk>jc^uISP2=WJO5Bp7O72<q!!*-(#S8+D+=g:E2=<R,!<NB0&0O4\.o>%ZmQ:IM!X&c?
+@%&":u+"s49,B`":,P]5ThRRh)4U_!!*-(#S8+D+=g:E2=<R,!<NB0&0O4\.o>%ZmQ:IM!X&c?+@%&"
:u+"s49,B`":,P]5ThRRh)4U_!!*-(#S8+D+=g:E2=<R,!<NB0&0O4\.o>%ZmQ:IM!X&c?+@%&":u+"s
49,B`":,P]5ThRRh)4U_!!*-(#S8+D+=g:E2=<R,!<NB0&0O4\.o>%ZmQ:IM!X&c?+@%&":u+"s49,B`
":,P]5ThRRh)4U_!!*-(#S8+D+=g:E2=<R,!<NB0&0O4\.o>%ZmQ:IM!X&c?+@%&":u+"s49,B`":,P]
5ThRRh)4U_!!*-(#S8+D+=g:E2=<R,!<NB0&0O4\.o>%ZmQ:IM!X&c?+@%&":u+"s49,B`":,P]5ThRR
h)4U_!!*-(#S8+D+=g:E2=@f!^j6+h&0O5g!.h/#7rS9To`u*O5_&h8!`]8^hY%!9&Kj>h!!*-(WWF6T
m/toa5_&h8!X&d."[%+c#HUFG!!*-(#S<pAGkAET=H<F_!X&c?+A`gBk\VEG*WZ<F#S8+DTISmIgHK".
!X&c?+@(HB<PYB=IDC.3#S8+DJ,k/#J4FPTJFs0Z+@(GW!<Q7%O5BR2lOb7)J,fTO"KDME^$PpQ,=$bZ
!<NB0<!>C1gBXfMJ,fTO":,R;$@)3O%p4km!<NB0&0OdanE=^2YT<fH":,P]5bKUbdG$im4TY`l&0O5g
^j?3ucmfoc~>

%AXGEndBitmap
GR
GR
GS
[0.47995 0 0 0.47989 880.72258 74.9948] CT
[1 0 0 1 0 0] CT
N
-2536.875 0.126 M
-2536.875 1439 L
101.916 1439 L
101.916 0.126 L
cp
clip
GS
0 0 translate
102 55 scale
%AXGBeginBitmap: java.awt.image.BufferedImage
{{
/RawData currentfile /ASCII85Decode filter def
/Data RawData /FlateDecode filter def
/DeviceGray setcolorspace
<<
  /ImageType 1
  /Decode [0 1]
  /DataSource Data
  /Height 55
  /ImageMatrix [102 0 0 55 0 0]
  /Width 102
  /BitsPerComponent 8
>> image
} stopped {handleerror} if
  RawData flushfile
} exec
Gb"0H0bFBc#fJFpRslV:_8)lOdR96T=%hAn;^`=eKgMJ0-km#B6M[c@ToE%#~>

%AXGEndBitmap
GR
GR
showpage
%%Trailer
%%Pages: 1
%%EOF
